Country,Company,Type,Plan,Down,Up,Bit cap,Price USD,Price USD PPP,USD/MB,USD/MB PPP,Notes,,,Xchange,PPP,Tax,URL,Collected,Price(local),Notes2,FastestDownSpeed,FastestUpSpeed,LowestSubMonthUSD,LowestSubMonthUSDPPP,Lowest$MB,Lowest$MBPPP,, ,Notes
Australia,Bigpond,ADSL,,256,64,200,22.79,21.1,89.04,82.44,"Plans with discount for phone line with Telstra, bit caps are actually ""unlimited but reduced to 64 Kbit/s after the mentioned amount",1,Data1,1.31,1.42,0,http://my.bigpond.com/internetplans/broadband/adsl/plans/,10/11/2006,29.95,,,,,,,,,,
Australia,Bigpond,ADSL,,256,64, 10 000 ,45.62,42.24,178.22,165.02,"Plans with discount for phone line with Telstra, bit caps are actually ""unlimited but reduced to 64 Kbit/s after the mentioned amount",2,Data2,1.31,1.42,0,http://my.bigpond.com/internetplans/broadband/adsl/plans/,10/11/2006,59.95,,,,,,,,,,
Australia,Bigpond,ADSL,,512,128,400,38.01,35.19,74.23,68.73,,3,Data3,1.31,1.42,0,http://my.bigpond.com/internetplans/broadband/adsl/plans/,10/11/2006,49.94,,,,,,,,,,
Australia,Bigpond,ADSL,,512,128, 10 000 ,60.84,56.34,118.84,110.03,,4,Data4,1.31,1.42,0,http://my.bigpond.com/internetplans/broadband/adsl/plans/,10/11/2006,79.95,,,,,,,,,,
Australia,Bigpond,ADSL,, 1 500 ,256,500,60.69,56.2,40.46,37.46,,5,Data5,1.31,1.42,0,http://my.bigpond.com/internetplans/broadband/adsl/plans/,10/11/2006,79.75,,,,,,,,,,
Australia,Bigpond,ADSL,, 1 500 ,256, 10 000 ,83.68,77.48,55.78,51.65,,6,Data6,1.31,1.42,0,http://my.bigpond.com/internetplans/broadband/adsl/plans/,10/11/2006,109.95,,,,,,,,,,
Australia,Bigpond,ADSL,, 1 500 ,256, 20 000 ,106.51,98.62,71,65.74,,7,Data7,1.31,1.42,0,http://my.bigpond.com/internetplans/broadband/adsl/plans/,10/11/2006,139.95,,,,,,,,,,
Australia,Internode,ADSL,HOME-256-Starter,256,128,500,22.79,21.1,89.04,82.44,,8,Data13,1.31,1.42,0,http://www.internode.on.net/adsl/pricing/home.htm,10/11/2006,29.95,,,,,,,,,,
Australia,Internode,ADSL,HOME-512-Starter,512,128, 8 000 ,30.4,28.15,59.38,54.98,,9,Data14,1.31,1.42,0,http://www.internode.on.net/adsl/pricing/home.htm,10/11/2006,39.95,,,,,,,,,,
Australia,Internode,ADSL,HOME-512-Value,512,128, 20 000 ,38.01,35.2,74.25,68.75,,10,Data15,1.31,1.42,0,http://www.internode.on.net/adsl/pricing/home.htm,10/11/2006,49.95,,,,,,,,,,
Australia,Internode,ADSL,HOME-512-Pro,512,128, 40 000 ,53.23,49.29,103.97,96.27,,11,Data16,1.31,1.42,0,http://www.internode.on.net/adsl/pricing/home.htm,10/11/2006,69.95,,,,,,,,,,
Australia,Internode,ADSL,HOME-512-Elite,512,128, 80 000 ,83.68,77.48,163.43,151.32,,12,Data17,1.31,1.42,0,http://www.internode.on.net/adsl/pricing/home.htm,10/11/2006,109.95,,,,,,,,,,
Australia,Internode,ADSL,HOME-1500-Starter, 1 500 ,256, 10 000 ,45.62,42.24,30.42,28.16,,13,Data18,1.31,1.42,0,http://www.internode.on.net/adsl/pricing/home.htm,10/11/2006,59.95,,,,,,,,,,
Australia,Internode,ADSL,HOME-1500-Value, 1 500 ,256, 20 000 ,53.23,49.29,35.49,32.86,,14,Data19,1.31,1.42,0,http://www.internode.on.net/adsl/pricing/home.htm,10/11/2006,69.95,,,,,,,,,,
Australia,Internode,ADSL,HOME-1500-Pro, 1 500 ,256, 40 000 ,68.46,63.38,45.64,42.26,,15,Data20,1.31,1.42,0,http://www.internode.on.net/adsl/pricing/home.htm,10/11/2006,89.95,,,,,,,,,,
Australia,Internode,ADSL,HOME-1500-Elite, 1 500 ,256, 80 000 ,98.9,91.57,65.93,61.05,,16,Data21,1.31,1.42,0,http://www.internode.on.net/adsl/pricing/home.htm,10/11/2006,129.95,,,,,,,,,,
Australia,Internode,ADSL,HOME-Extreme-Value, 24 000 , 1 000 , 20 000 ,45.62,42.24,1.9,1.76,,17,Data22,1.31,1.42,0,http://www.internode.on.net/adsl/pricing/home.htm,10/11/2006,59.95,,,,,,,,,,
Australia,Internode,ADSL,HOME-Extreme-Pro, 24 000 , 1 000 , 40 000 ,60.84,56.34,2.54,2.35,,18,Data23,1.31,1.42,0,http://www.internode.on.net/adsl/pricing/home.htm,10/11/2006,79.95,,,,,,,,,,
Australia,Internode,ADSL,HOME-Extreme-Elite, 24 000 , 1 000 , 80 000 ,91.29,84.52,3.8,3.52,,19,Data24,1.31,1.42,0,http://www.internode.on.net/adsl/pricing/home.htm,10/11/2006,119.95,,,,,,,,,,
Australia,Optus,Cable,Easy Start, 9 900 ,128,100,22.79,21.1,2.3,2.13,Bitcaps are for peak usage. 200% more is available on evenings and weekends. AUD10 discount is available in a bundle.,20,Data8,1.31,1.42,0,http://www.optus.com.au/portal/site/personal/menuitem.ded28886f64e13141ff0a1108c8ac7a0/?vgnextoid=40c31308f0054010VgnVCM10000029a67c0aRCRD&vgnextchannel=5bf31308f0054010VgnVCM10000029a67c0aRCRD&vgnextfmt=default,10/11/2006,29.95,,,,,,,,,,
Australia,Optus,Cable,Light, 9 900 ,128,300,30.4,28.15,3.07,2.84,Bitcaps are for peak usage. 200% more is available on evenings and weekends. AUD10 discount is available in a bundle.,21,Data9,1.31,1.42,0,http://www.optus.com.au/portal/site/personal/menuitem.ded28886f64e13141ff0a1108c8ac7a0/?vgnextoid=40c31308f0054010VgnVCM10000029a67c0aRCRD&vgnextchannel=5bf31308f0054010VgnVCM10000029a67c0aRCRD&vgnextfmt=default,10/11/2006,39.95,,,,,,,,,,
Australia,Optus,Cable,Sprint, 9 900 ,128, 2 000 ,38.01,35.2,3.84,3.56,Bitcaps are for peak usage. 200% more is available on evenings and weekends. AUD10 discount is available in a bundle.,22,Data10,1.31,1.42,0,http://www.optus.com.au/portal/site/personal/menuitem.ded28886f64e13141ff0a1108c8ac7a0/?vgnextoid=40c31308f0054010VgnVCM10000029a67c0aRCRD&vgnextchannel=5bf31308f0054010VgnVCM10000029a67c0aRCRD&vgnextfmt=default,10/11/2006,49.95,,,,,,,,,,
Australia,Optus,Cable,Advantage, 9 900 ,128, 7 000 ,45.62,42.24,4.61,4.27,Bitcaps are for peak usage. 200% more is available on evenings and weekends. AUD10 discount is available in a bundle.,23,Data11,1.31,1.42,0,http://www.optus.com.au/portal/site/personal/menuitem.ded28886f64e13141ff0a1108c8ac7a0/?vgnextoid=40c31308f0054010VgnVCM10000029a67c0aRCRD&vgnextchannel=5bf31308f0054010VgnVCM10000029a67c0aRCRD&vgnextfmt=default,10/11/2006,59.95,,,,,,,,,,
Australia,Optus,Cable,Power, 9 900 ,128, 20 000 ,60.84,56.34,6.15,5.69,Bitcaps are for peak usage. 200% more is available on evenings and weekends. AUD10 discount is available in a bundle.,24,Data12,1.31,1.42,0,http://www.optus.com.au/portal/site/personal/menuitem.ded28886f64e13141ff0a1108c8ac7a0/?vgnextoid=40c31308f0054010VgnVCM10000029a67c0aRCRD&vgnextchannel=5bf31308f0054010VgnVCM10000029a67c0aRCRD&vgnextfmt=default,10/11/2006,79.95,,,,,,,,,,
Australia,,,, 5 660 ,269, 21 625 ,54.5,50.46,55.14,51.05,,,,,,,,,,,,,,,,,,,
Austria,AON,ADSL,aonSpeed Einsteiger,384,128,400,25.34,22.23,65.99,57.89,,25,Data25,0.79,0.9,0,http://www.aon.at/portal/site/aon/menuitem.60930f700145c71a7e08901014a041ca/?vgnextoid=c798de021b897010VgnVCM200000220a14acRCRD,10/11/2006,19.9,,,,,,,,,,
Austria,AON,ADSL,aonSpeed Allrounder, 1 024 ,256,800,38.07,33.4,37.18,32.62,,26,Data26,0.79,0.9,0,http://www.aon.at/portal/site/aon/menuitem.60930f700145c71a7e08901014a041ca/?vgnextoid=8ebcb0a56b597010VgnVCM100000210a14acRCRD&vgnextchannel=163794173be07010VgnVCM100000410a14ac____,10/11/2006,29.9,,,,,,,,,,
Austria,AON,ADSL,aonSpeed Allrounder, 1 024 ,256, 2 000 ,50.81,44.57,49.62,43.52,,27,Data27,0.79,0.9,0,http://www.aon.at/portal/site/aon/menuitem.60930f700145c71a7e08901014a041ca/?vgnextoid=40c8de021b897010VgnVCM200000220a14acRCRD&vgnextchannel=163794173be07010VgnVCM100000410a14ac____,10/11/2006,39.9,,,,,,,,,,
Austria,AON,ADSL,aonSpeed Allrounder, 1 024 ,256, 5 000 ,57.18,50.15,55.84,48.98,,28,Data28,0.79,0.9,0,http://www.aon.at/portal/site/aon/menuitem.60930f700145c71a7e08901014a041ca/?vgnextoid=b5dcb0a56b597010VgnVCM100000210a14acRCRD&vgnextchannel=163794173be07010VgnVCM100000410a14ac____,10/11/2006,44.9,,,,,,,,,,
Austria,AON,ADSL,aonSpeed Power User, 2 048 ,384, 15 000 ,69.91,61.32,34.14,29.94,,29,Data29,0.79,0.9,0,http://www.aon.at/portal/site/aon/menuitem.60930f700145c71a7e08901014a041ca/?vgnextoid=5ed8de021b897010VgnVCM200000220a14acRCRD,10/11/2006,54.9,,,,,,,,,,
Austria,AON,ADSL,aonPur, 1 280 ,256, 15 000 ,82.64,72.49,64.57,56.64,,30,Data30,0.79,0.9,0,http://www.aon.at/portal/site/aon/menuitem.60930f700145c71a7e08901014a041ca/?vgnextoid=45a64bc50ada7010VgnVCM200000220a14acRCRD&,10/11/2006,64.9,,,,,,,,,,
Austria,inode,ADSL,aDSL solo Privat 1280/256, 1 280 ,256, 20 000 ,76.28,66.91,59.59,52.27,An extra 20 GB of data can be purchased for EUR 19.90 and 7 GB for EUR 9.90. ,31,Data36,0.79,0.9,0,https://shop.inode.at/shop/shop.php?&action=showChooseProduct&ProductGroupType=Private&ProductGroupArray_Code=adsl&ProductGroupB2_Code=B2C,10/12/2006,59.9,,,,,,,,,,
Austria,inode,ADSL,aDSL Privat small 384/128,384,128,500,24.07,21.11,62.68,54.98,An extra 20 GB of data can be purchased for EUR 19.90 and 7 GB for EUR 9.90. ,32,Data37,0.79,0.9,0,https://shop.inode.at/shop/shop.php?&action=showChooseProduct&ProductGroupType=Private&ProductGroupArray_Code=adsl&ProductGroupB2_Code=B2C,10/12/2006,18.9,,,,,,,,,,
Austria,inode,ADSL,aDSL Privat medium 1024/256, 1 024 ,256, 1 000 ,34.25,30.05,33.45,29.34,An extra 20 GB of data can be purchased for EUR 19.90 and 7 GB for EUR 9.90. ,33,Data38,0.79,0.9,0,https://shop.inode.at/shop/shop.php?&action=showChooseProduct&ProductGroupType=Private&ProductGroupArray_Code=adsl&ProductGroupB2_Code=B2C,10/12/2006,26.9,,,,,,,,,,
Austria,inode,ADSL,aDSL Privat medium 2048/384, 2 048 ,384, 2 000 ,62.4,54.73,30.47,26.73,An extra 20 GB of data can be purchased for EUR 19.90 and 7 GB for EUR 9.90. ,34,Data39,0.79,0.9,0,https://shop.inode.at/shop/shop.php?&action=showChooseProduct&ProductGroupType=Private&ProductGroupArray_Code=adsl&ProductGroupB2_Code=B2C,10/12/2006,49,,,,,,,,,,
Austria,inode,ADSL,aDSL Privat large 3072/512, 3 072 ,512, 15 000 ,75.13,65.9,24.46,21.45,An extra 20 GB of data can be purchased for EUR 19.90 and 7 GB for EUR 9.90. ,35,Data40,0.79,0.9,0,https://shop.inode.at/shop/shop.php?&action=showChooseProduct&ProductGroupType=Private&ProductGroupArray_Code=adsl&ProductGroupB2_Code=B2C,10/12/2006,59,,,,,,,,,,
Austria,inode,ADSL,aDSL Privat large 4096/512, 4 096 ,512, 20 000 ,87.86,77.07,21.45,18.82,An extra 20 GB of data can be purchased for EUR 19.90 and 7 GB for EUR 9.90. ,36,Data41,0.79,0.9,0,https://shop.inode.at/shop/shop.php?&action=showChooseProduct&ProductGroupType=Private&ProductGroupArray_Code=adsl&ProductGroupB2_Code=B2C,10/12/2006,69,,,,,,,,,,
Austria,UPC,Cable,chello classic, 4 096 ,512,,62.4,54.73,15.23,13.36,,37,Data31,0.79,0.9,0,http://www.upc.at/index.php?PageID=1009&&R=7920,10/12/2006,49,,,,,,,,,,
Austria,UPC,Cable,chello plus, 8 192 ,768,,87.86,77.07,10.73,9.41,,38,Data32,0.79,0.9,0,http://www.upc.at/index.php?PageID=4051&&R=7920,10/12/2006,69,,,,,,,,,,
Austria,UPC,Cable,chello plus symmetric, 4 096 , 4 096 , 20 000 ,126.07,110.58,30.78,27,,39,Data33,0.79,0.9,0,http://www.upc.at/index.php?PageID=4051&&R=7920,10/12/2006,99,,,,,,,,,,
Austria,UPC,Cable,chello extreme, 16 384 , 1 024 ,,113.33,99.41,6.92,6.07,,40,Data34,0.79,0.9,0,http://www.upc.at/index.php?PageID=4030&&R=19137,10/12/2006,89,,,,,,,,,,
Austria,UPC,Cable,chello light,400,128, 1 000 ,25.44,22.32,63.61,55.79,,41,Data35,0.79,0.9,0,http://www.upc.at/index.php?PageID=1020&&R=17052,10/12/2006,19.98,,,,,,,,,,
Austria,,,, 3 050 ,595, 6 924 ,64.65,56.71,39.22,34.4,,,,,,,,,,,,,,,,,,,
Belgium,Belgacom,ADSL,ADSL Light,512,128,400,38.14,33.75,74.49,65.92,Belgacom offers 5GB of extra traffic for EUR 5 and subscribers can order as many as they like per month,42,Data42,0.79,0.89,0,http://www.belgacom.be/private/en/jsp/dynamic/product.jsp?dcrName=hbs_adsl_res_light,10/12/2006,29.95,,,,,,,,,,
Belgium,Belgacom,ADSL,ADSL Go, 4 096 ,256, 10 000 ,50.87,45.02,12.42,10.99,Belgacom offers 5GB of extra traffic for EUR 5 and subscribers can order as many as they like per month,43,Data43,0.79,0.89,0,http://www.belgacom.be/private/en/jsp/dynamic/product.jsp?dcrName=hbs_adsl_res_light,10/12/2006,39.95,,,,,,,,,,
Belgium,Belgacom,ADSL,ADSL Plus, 4 096 ,256, 30 000 ,69.97,61.92,17.08,15.12,Belgacom offers 5GB of extra traffic for EUR 5 and subscribers can order as many as they like per month,44,Data44,0.79,0.89,0,http://www.belgacom.be/private/en/jsp/dynamic/product.jsp?dcrName=hbs_adsl_res_light,10/12/2006,54.95,,,,,,,,,,
Belgium,Belgacom,ADSL,VDSL, 17 000 ,400, 30 000 ,76.34,67.56,4.49,3.97,Belgacom offers 5GB of extra traffic for EUR 5 and subscribers can order as many as they like per month,45,Data45,0.79,0.89,0,http://www.belgacom.be/private/en/jsp/dynamic/product.jsp?dcrName=hbs_adsl_res_light,10/12/2006,59.95,,,,,,,,,,
Belgium,Tele2,ADSL,ADSL 4Mb, 4 000 ,256, 10 000 ,38.07,33.69,9.52,8.42,,46,Data50,0.79,0.89,0,http://www.versatel.be/adsl/adsl_tarifs.php?&language=frhttp://www.tele2.be/fr/internet/adsl4mb/tarifs/,10/12/2006,29.9,,,,,,,,,,
Belgium,Tele2,ADSL,ADSL Light,512,256,250,25.34,22.43,49.49,43.8,EUR 0.05 per MB over the bitcap,47,Data51,0.79,0.89,0,http://www.versatel.be/adsl/adsl_tarifs.php?&language=frhttp://www.tele2.be/fr/internet/adsl4mb/tarifs/,10/12/2006,19.9,,,,,,,,,,
Belgium,Telenet,Cable ,ComfortNet, 1 024 ,192, 1 000 ,38.14,33.75,37.24,32.96,Extra data available at EUR 1 per GB. ,48,Data46,0.79,0.89,0,http://www.telenet.be/fr/particuliers/internet/producten/expressnet/detail_tabel.page,10/12/2006,29.95,,,,,,,,,,
Belgium,Telenet,Cable ,ExpressNet, 10 000 ,256, 12 000 ,53.42,47.27,5.34,4.73,Extra data available at EUR 1 per GB. ,49,Data47,0.79,0.89,0,http://www.telenet.be/fr/particuliers/internet/producten/expressnet/detail_tabel.page,10/12/2006,41.95,,,,,,,,,,
Belgium,Telenet,Cable ,ExpressNet Plus, 15 000 ,512, 18 000 ,66.15,58.54,4.41,3.9,Extra data available at EUR 1 per GB. ,50,Data48,0.79,0.89,0,http://www.telenet.be/fr/particuliers/internet/producten/expressnet/detail_tabel.page,10/12/2006,51.95,,,,,,,,,,
Belgium,Telenet,Cable ,ExpressNet Turbo, 20 000 ,512, 35 000 ,76.34,67.56,3.82,3.38,Extra data available at EUR 1 per GB. ,51,Data49,0.79,0.89,0,http://www.telenet.be/fr/particuliers/internet/producten/expressnet/detail_tabel.page,10/12/2006,59.95,,,,,,,,,,
Belgium,,,, 7 624 ,302, 14 665 ,53.28,47.15,21.83,19.32,,,,,,,,,,,,,,,,,,,
Canada,Bell Canada,ADSL,High Speed Ultra, 5 000 ,,,51.52,46.41,10.3,9.28,"Prices for Ottawa, Ontario",52,Data52,1.12,1.24,0.15,http://bellbundles.logient.com/en/new_services?sympatico=95&addsympatico=95&expressVu=240&addexpressVu=240&mobility=20&addmobility=20,10/12/2006,50,(613) 728-9087,,,,,,,,,
Canada,Bell Canada,ADSL,High Speed, 5 000 ,,,48.38,43.58,9.68,8.72,"Prices for Ottawa, Ontario",53,Data53,1.12,1.24,0.15,http://bellbundles.logient.com/en/new_services?sympatico=95&addsympatico=95&expressVu=240&addexpressVu=240&mobility=20&addmobility=20,10/12/2006,46.95,(613) 728-9087,,,,,,,,,
Canada,Bell Canada,ADSL,Basic, 1 000 ,,,36.06,32.49,36.06,32.49,"Prices for Ottawa, Ontario",54,Data54,1.12,1.24,0.15,http://bellbundles.logient.com/en/new_services?sympatico=95&addsympatico=95&expressVu=240&addexpressVu=240&mobility=20&addmobility=20,10/12/2006,35,(613) 728-9087,,,,,,,,,
Canada,Bell Canada,ADSL,Sympatico Optimax 16, 16 000 , 1 000 ,,103.04,92.83,6.44,5.8,"Prices for Ottawa, Ontario",55,Data55,1.12,1.24,0.15,http://bellbundles.logient.com/en/new_services?sympatico=95&addsympatico=95&expressVu=240&addexpressVu=240&mobility=20&addmobility=20,10/12/2006,100,(613) 728-9087,,,,,,,,,
Canada,Bell Canada,ADSL,Sympatico Optimax 10, 10 000 , 1 000 ,,72.13,64.98,7.21,6.5,"Prices for Ottawa, Ontario",56,Data56,1.12,1.24,0.15,http://bellbundles.logient.com/en/new_services?sympatico=95&addsympatico=95&expressVu=240&addexpressVu=240&mobility=20&addmobility=20,10/12/2006,70,(613) 728-9087,,,,,,,,,
Canada,Shaw,Cable,High-Speed Xtreme-I, 10 000 , 1 000 , 100 000 ,50.44,45.44,5.04,4.54,Price does not include modem,57,Data57,1.12,1.24,0.15,http://www.shaw.ca/en-ca/ProductsServices/Internet/,10/13/2006,48.95,,,,,,,,,,
Canada,Shaw,Cable,High-Speed Internet, 5 000 ,512, 60 000 ,40.13,36.16,8.03,7.23,Price does not include modem,58,Data58,1.12,1.24,0.15,http://www.shaw.ca/en-ca/ProductsServices/Internet/,10/13/2006,38.95,,,,,,,,,,
Canada,Shaw,Cable,High-Speed Internet Lite,256,128, 10 000 ,25.71,23.16,100.42,90.47,Must be a cable TV subscriber for displayed price,59,Data59,1.12,1.24,0.15,http://www.shaw.ca/en-ca/ProductsServices/Internet/,10/13/2006,24.95,,,,,,,,,,
Canada,Rogers,Cable,Extreme, 6 000 ,800,,53.53,48.22,8.92,8.04,Monthly rental fee not included,60,Data60,1.12,1.24,0.15,http://www.shoprogers.com/store/cable/internetcontent/extreme.asp?shopperID=1VKTKAC167RF9KFVN86E95QX6KUQ90M6,10/25/2006,51.95,Postal code: M5S 2T1,,,,,,,,,
Canada,Rogers,Cable,Express, 5 000 ,384,,45.28,40.8,9.06,8.16,Monthly rental fee not included,61,Data61,1.12,1.24,0.15,http://www.shoprogers.com/store/cable/internetcontent/express_RCI.asp?shopperID=1VKTKAC167RF9KFVN86E95QX6KUQ90M6,10/25/2006,43.95,,,,,,,,,,
Canada,Rogers,Cable,Lite, 1 000 ,128,,32.92,29.66,32.92,29.66,Monthly rental fee not included,62,Data62,1.12,1.24,0.15,http://www.shoprogers.com/store/cable/internetcontent/lite_RCI.asp?shopperID=1VKTKAC167RF9KFVN86E95QX6KUQ90M6,10/25/2006,31.95,,,,,,,,,,
Canada,,,, 5 841 ,450, 15 455 ,50.83,45.79,21.28,19.17,,,,,,,,,,,,,,,,,,,
Czech Republic,O2,ADSL,Internet Expres 2048, 2 048,256, 8 000,31.97,49.19,15.61,24.02,,,,,,,,,,,,,,,,,,,
Czech Republic,O2,ADSL,Internet Expres 512,512,128, 1 000,21.3,32.76,41.6,63.99,,,,,,,,,,,,,,,,,,,
Czech Republic,O2,ADSL,Internet Expres 3072, 3 072,256, 12 000,42.65,65.61,13.88,21.36,,,,,,,,,,,,,,,,,,,
Czech Republic,O2,ADSL,Internet Expres 4096, 4 096,512, 20 000,64,98.46,15.62,24.04,,,,,,,,,,,,,,,,,,,
Czech Republic,GTS Novera,ADSL,Fun 512/128 kbps,512,128, 2 000,21.08,32.44,41.18,63.35,,,,,,,,,,,,,,,,,,,
Czech Republic,GTS Novera,ADSL,Fun 2048/256 kbps, 2 058,256, 10 000,31.76,48.86,15.43,23.74,,,,,,,,,,,,,,,,,,,
Czech Republic,GTS Novera,ADSL,Fun 4096/512 kbps, 4 096,512, 20 000,63.78,98.13,15.57,23.96,,,,,,,,,,,,,,,,,,,
Czech Republic,UPC,Cable,Starter,512,128, 5 000,25.35,39,49.52,76.18,,,,,,,,,,,,,,,,,,,
Czech Republic,UPC,Cable,Easy, 1 024,128, 10 000,29.62,45.57,28.93,44.51,,,,,,,,,,,,,,,,,,,
Czech Republic,UPC,Cable,Light, 2 560,256, 20 000,41.58,63.97,16.24,24.99,,,,,,,,,,,,,,,,,,,
Czech Republic,UPC,Cable,Classic, 4 096,512, 50 000,65.33,100.51,15.95,24.54,,,,,,,,,,,,,,,,,,,
Czech Republic,UPC,Cable,Plus , 6 144,768, 100 000,89.56,137.79,14.58,22.43,,,,,,,,,,,,,,,,,,,
Czech Republic,UPC,Cable,Extreme, 10 240, 1 024, 100 000,106.7,164.15,10.42,16.03,,,,,,,,,,,,,,,,,,,
Czech Republic,UPC,Cable,Professional, 12 288, 1 024, 100 000,241.95,372.23,19.69,30.29,,,,,,,,,,,,,,,,,,,
Czech Republic,,,, 3 804,421, 32 714,62.62,96.33,22.44,34.53,,,,,,,,,,,,,,,,,,,
Denmark,TDC,ADSL,,256,128,,20.31,13.91,79.34,54.34,,,,,,,,,,,,,,,,,,,
Denmark,TDC,ADSL,,512,128,,40.79,27.94,79.67,54.57,,,,,,,,,,,,,,,,,,,
Denmark,TDC,ADSL,,512,512,,53.59,36.71,104.68,71.7,,,,,,,,,,,,,,,,,,,
Denmark,TDC,ADSL,, 1 024,128,,51.03,34.96,49.84,34.14,,,,,,,,,,,,,,,,,,,
Denmark,TDC,ADSL,, 1 024,512,,63.84,43.72,62.34,42.7,,,,,,,,,,,,,,,,,,,
Denmark,TDC,ADSL,, 2 048,128,,61.28,41.97,29.92,20.49,,,,,,,,,,,,,,,,,,,
Denmark,TDC,ADSL,, 2 048,512,,74.08,50.74,36.17,24.77,,,,,,,,,,,,,,,,,,,
Denmark,TDC,ADSL,, 4 096,256, 15 000,68.1,46.65,16.63,11.39,,,,,,,,,,,,,,,,,,,
Denmark,TDC,ADSL,, 4 096,512, 15 000,80.9,55.41,19.75,13.53,,,,,,,,,,,,,,,,,,,
Denmark,TDC,ADSL,, 8 064,512, 20 000,119.31,81.72,14.8,10.13,,,,,,,,,,,,,,,,,,,
Denmark,TDC,ADSL,, 20 480, 1 024,  ,153.44,105.1,7.49,5.13,,,,,,,,,,,,,,,,,,,
Denmark,Telia Stofa,Cable,Flatrate,256,64,  ,25.43,17.42,99.34,68.04,,,,,,,,,,,,,,,,,,,
Denmark,Telia Stofa,Cable,Flatrate,512,128,  ,40.79,27.94,79.67,54.57,,,,,,,,,,,,,,,,,,,
Denmark,Telia Stofa,Cable,Flatrate, 1 024,256,  ,49.33,33.79,48.17,32.99,,,,,,,,,,,,,,,,,,,
Denmark,Telia Stofa,Cable,Flatrate, 4 096,512,  ,78.34,53.66,19.13,13.1,,,,,,,,,,,,,,,,,,,
Denmark,Dansk Bredb├Ñnd,FTTx,, 25 000, 25 000,  ,101.56,69.56,4.06,2.78,,,,,,,,,,,,,,,,,,,
Denmark,Dansk Bredb├Ñnd,FTTx,, 10 000, 10 000,  ,50.35,34.49,5.04,3.45,,,,,,,,,,,,,,,,,,,
Denmark,Dansk Bredb├Ñnd,FTTx,, 2 000, 2 000,  ,33.28,22.8,16.64,11.4,,,,,,,,,,,,,,,,,,,
Denmark,Dansk Bredb├Ñnd,FTTx,,512,512,  ,16.21,11.11,31.67,21.69,,,,,,,,,,,,,,,,,,,
Denmark,,,, 4 608, 2 254, 2 632,62.21,42.61,42.33,29,,,,,,,,,,,,,,,,,,,
Finland,Sonera,ADSL,,256,256,  ,26.1,20.08,101.97,78.44,,,,,,,,,,,,,,,,,,,
Finland,Sonera,ADSL,,512,512,  ,29.16,22.43,56.95,43.81,,,,,,,,,,,,,,,,,,,
Finland,Sonera,ADSL,, 1 000,512,  ,30.43,23.41,30.43,23.41,,,,,,,,,,,,,,,,,,,
Finland,Sonera,ADSL,, 2 048,512,  ,43.17,33.21,21.08,16.21,,,,,,,,,,,,,,,,,,,
Finland,Sonera,ADSL,, 8 000, 1 024,  ,55.9,43,6.99,5.38,,,,,,,,,,,,,,,,,,,
Finland,Sonera,ADSL,, 12 000, 1 024,  ,66.22,50.94,5.52,4.24,,,,,,,,,,,,,,,,,,,
Finland,Sonera,ADSL,, 24 000, 1 024,  ,75.13,57.79,3.13,2.41,,,,,,,,,,,,,,,,,,,
Finland,Elisa,ADSL,256/256 kbit/s,256,256,  ,26.61,20.47,103.96,79.97,,,,,,,,,,,,,,,,,,,
Finland,Elisa,ADSL,512/512 kbit/s,512,512,  ,29.16,22.43,56.95,43.81,,,,,,,,,,,,,,,,,,,
Finland,Elisa,ADSL,1M /512 kbit/s, 1 000,512,  ,31.71,24.39,31.71,24.39,,,,,,,,,,,,,,,,,,,
Finland,Elisa,ADSL,2M /512 kbit/s, 2 000,512,  ,44.44,34.19,22.22,17.09,,,,,,,,,,,,,,,,,,,
Finland,Elisa,ADSL,8M/1M Full Rate, 8 000, 1 000,  ,57.18,43.98,7.15,5.5,,,,,,,,,,,,,,,,,,,
Finland,Elisa,ADSL,24M/1M Full Rate, 24 000, 1 000,  ,63.54,48.88,2.65,2.04,,,,,,,,,,,,,,,,,,,
Finland,Welho,Cable,Welho 10M, 10 000,500,  ,75.13,57.79,7.51,5.78,,,,,,,,,,,,,,,,,,,
Finland,Welho,Cable,Welho 6M, 6 000,500,  ,57.3,44.08,9.55,7.35,,,,,,,,,,,,,,,,,,,
Finland,Welho,Cable,Welho 2M, 2 000,300,  ,45.84,35.26,22.92,17.63,,,,,,,,,,,,,,,,,,,
Finland,Welho,Cable,Welho 1M, 1 000,300,  ,31.83,24.49,31.83,24.49,,,,,,,,,,,,,,,,,,,
Finland,Welho,Cable,Welho 525,525,200,  ,25.34,19.49,48.27,37.13,,,,,,,,,,,,,,,,,,,
Finland,Sonera,FTTx,Huoneisto Plus, 100 000, 10 000,  ,76.28,58.67,0.76,0.59,,,,,,,,,,,,,,,,,,,
Finland,Sonera,FTTx,Huoneisto Plus, 10 000, 10 000,  ,55.9,43,5.59,4.3,,,,,,,,,,,,,,,,,,,
Finland,Sonera,FTTx,Huoneisto Plus, 1 000, 1 000,  ,31.71,24.39,31.71,24.39,,,,,,,,,,,,,,,,,,,
Finland,,,, 10 196, 1 498,  ,46.58,35.83,28.99,22.3,,,,,,,,,,,,,,,,,,,
France,France Telecom,ADSL,internet 1 m├®gamax, 1 024,256,  ,31.71,27.33,30.96,26.69,,,,,,,,,,,,,,,,,,,
France,France Telecom,ADSL,internet 8 m├®gamax, 8 000,800,  ,38.07,32.82,4.76,4.1,,,,,,,,,,,,,,,,,,,
France,France Telecom,ADSL,internet 18 m├®gamax, 18 000,800,  ,44.44,38.31,2.47,2.13,,,,,,,,,,,,,,,,,,,
France,Neuf Telecom,ADSL,, 20 000, 1 000,  ,18.97,16.36,0.95,0.82,,,,,,,,,,,,,,,,,,,
France,Noos,Cable,NET 1 M├®ga, 1 000,,  ,31.71,27.33,31.71,27.33,,,,,,,,,,,,,,,,,,,
France,Noos,Cable,NET 4 M├®ga, 4 000,,  ,38.07,32.82,9.52,8.21,,,,,,,,,,,,,,,,,,,
France,Noos,Cable,NET 20 M├®ga, 20 000,,  ,44.44,38.31,2.22,1.92,,,,,,,,,,,,,,,,,,,
France,,,, 10 289,408,  ,35.35,30.47,11.8,10.17,,,,,,,,,,,,,,,,,,,
Germany,Arcor,ADSL,Paket 2000, 2 000,384,  ,57.11,49.23,28.56,24.62,,,,,,,,,,,,,,,,,,,
Germany,Arcor,ADSL,Paket 6000, 6 000,,  ,63.48,54.72,10.58,9.12,,,,,,,,,,,,,,,,,,,
Germany,Arcor,ADSL,Paket 16000, 16 000,,  ,67.3,58.02,4.21,3.63,,,,,,,,,,,,,,,,,,,
Germany,Deutsche Telekom,ASDL,T-DSL 1000 , 1 024,128,  ,34.36,29.62,33.55,28.92,,,,,,,,,,,,,,,,,,,
Germany,Deutsche Telekom,ASDL,T-DSL 2000, 2 048,192,  ,38.18,32.91,18.64,16.07,,,,,,,,,,,,,,,,,,,
Germany,Deutsche Telekom,ASDL,T-DSL 6000 , 6 016,576,  ,44.54,38.4,7.4,6.38,,,,,,,,,,,,,,,,,,,
Germany,Deutsche Telekom,ASDL,T-DSL 16000 , 16 000, 1 024,  ,50.91,43.89,3.18,2.74,,,,,,,,,,,,,,,,,,,
Germany,Kabel Deutschland,Cable,Classic,512,512,  ,25.34,21.85,49.49,42.67,,,,,,,,,,,,,,,,,,,
Germany,Kabel Deutschland,Cable,Comfort, 2 200,220,  ,38.07,32.82,17.31,14.92,,,,,,,,,,,,,,,,,,,
Germany,Kabel Deutschland,Cable,Professional, 10 200,420,  ,63.54,54.78,6.23,5.37,,,,,,,,,,,,,,,,,,,
Germany,,,, 6 200,346,  ,48.28,41.62,17.91,15.44,,,,,,,,,,,,,,,,,,,
Greece,OTE,ADSL,Conn-x 768/ 192,768,192,  ,33.81,36.35,44.02,47.34,,,,,,,,,,,,,,,,,,,
Greece,OTE,ADSL,Conn-x 1024/ 256, 1 024,256,  ,42.82,46.05,41.82,44.97,,,,,,,,,,,,,,,,,,,
Greece,OTE,ADSL,Conn-x 2048, 2 048,256,  ,71.37,76.75,34.85,37.47,,,,,,,,,,,,,,,,,,,
Greece,Vivodi,ADSL,256/128,256,128,  ,38.98,41.91,152.26,163.72,,,,,,,,,,,,,,,,,,,
Greece,Vivodi,ADSL,384/128,384,128,  ,44.72,48.08,116.45,125.22,,,,,,,,,,,,,,,,,,,
Greece,Vivodi,ADSL,512/128,512,128,  ,47.92,51.52,93.59,100.63,,,,,,,,,,,,,,,,,,,
Greece,Vivodi,ADSL,1024/256, 1 024,256,  ,55.07,59.22,53.78,57.83,,,,,,,,,,,,,,,,,,,
Greece,Vivodi,ADSL,2048/640, 2 048,640,  ,101.56,109.21,49.59,53.32,,,,,,,,,,,,,,,,,,,
Greece,Vivodi,ADSL,4096/640, 4 096,640,  ,310.95,334.36,75.92,81.63,,,,,,,,,,,,,,,,,,,
Greece,,,, 1 351,292,  ,83.02,89.27,73.59,79.13,,,,,,,,,,,,,,,,,,,
Hungary,T-Com,ADSL,T-DSL Favorit,512,96,  ,41.69,68.35,81.43,133.49,,,,,,,,,,,,,,,,,,,
Hungary,T-Com,ADSL,T-DSL Favorit Plusz 1M, 1 024,128,  ,63.07,103.4,61.59,100.97,,,,,,,,,,,,,,,,,,,
Hungary,T-Com,ADSL,T-DSL Favorit Plusz 2M, 2 048,192,  ,72.35,118.6,35.33,57.91,,,,,,,,,,,,,,,,,,,
Hungary,GTS-Datanet,ADSL,1024/128, 1 024,128,  ,39.27,64.37,38.35,62.86,,,,,,,,,,,,,,,,,,,
Hungary,GTS-Datanet,ADSL,easy_C,512,96,  ,22.24,36.45,43.43,71.2,,,,,,,,,,,,,,,,,,,
Hungary,GTS-Datanet,ADSL,fair_C, 1 024,128,  ,32.28,52.91,31.52,51.67,,,,,,,,,,,,,,,,,,,
Hungary,GTS-Datanet,ADSL,beginner,512,96,  ,30.24,49.58,59.07,96.83,,,,,,,,,,,,,,,,,,,
Hungary,GTS-Datanet,ADSL,basic, 1 024,128,  ,39.27,64.37,38.35,62.86,,,,,,,,,,,,,,,,,,,
Hungary,GTS-Datanet,ADSL,advanced, 2 048,192,  ,46.84,76.78,22.87,37.49,,,,,,,,,,,,,,,,,,,
Hungary,GTS-Datanet,ADSL,expert, 3 008,384,  ,58.19,95.39,19.34,31.71,,,,,,,,,,,,,,,,,,,
Hungary,GTS-Datanet,ADSL,professional, 6 144,512,  ,118.26,193.88,19.25,31.56,,,,,,,,,,,,,,,,,,,
Hungary,UPC,Cable,chello classic, 3 072,512,  ,53.38,87.51,17.38,28.49,,,,,,,,,,,,,,,,,,,
Hungary,UPC,Cable,chello standard, 1 536,384,  ,44.06,72.23,28.68,47.02,,,,,,,,,,,,,,,,,,,
Hungary,UPC,Cable,chello plus, 6 144, 1 024,  ,133.52,218.88,21.73,35.63,,,,,,,,,,,,,,,,,,,
Hungary,,,, 2 117,286,  ,56.76,93.05,37.02,60.69,,,,,,,,,,,,,,,,,,,
Iceland,Siminn,ADSL,G├│├░ur, 1 000,256, 4 000,56.88,37.18,56.88,37.18,,,,,,,,,,,,,,,,,,,
Iceland,Siminn,ADSL,Betri, 2 000,512, 6 000,71.13,46.49,35.57,23.25,,,,,,,,,,,,,,,,,,,
Iceland,Siminn,ADSL,Bestur, 8 000, 1 024,  ,85.39,55.81,10.67,6.98,,,,,,,,,,,,,,,,,,,
Iceland,Siminn,ADSL,Langbestur, 12 000, 1 024,  ,92.52,60.47,7.71,5.04,,,,,,,,,,,,,,,,,,,
Iceland,Vodafone,ADSL,, 1 000,, 2 000,56.88,37.18,56.88,37.18,,,,,,,,,,,,,,,,,,,
Iceland,Vodafone,ADSL,, 2 000,, 2 000,71.13,46.49,35.57,23.25,,,,,,,,,,,,,,,,,,,
Iceland,Vodafone,ADSL,, 4 000,, 4 000,85.39,55.81,21.35,13.95,,,,,,,,,,,,,,,,,,,
Iceland,Vodafone,ADSL,, 6 000,, 4 000,96.79,63.26,16.13,10.54,,,,,,,,,,,,,,,,,,,
Iceland,,,, 4 500,352, 2 750,77.01,50.34,30.09,19.67,,,,,,,,,,,,,,,,,,,
Ireland,Eircom,ADSL,broadband home starter, 1 024,128, 10 000,31.82,22.73,31.08,22.2,,,,,,,,,,,,,,,,,,,
Ireland,Eircom,ADSL,broadband home plus, 2 048,248, 20 000,38.19,27.28,18.65,13.32,,,,,,,,,,,,,,,,,,,
Ireland,Eircom,ADSL,broadband home professional, 3 000,384, 30 000,61.63,44.02,20.54,14.67,,,,,,,,,,,,,,,,,,,
Ireland,ntl,Cable,Broadband value, 1 000,, 2 000,25.46,18.18,25.46,18.18,,,,,,,,,,,,,,,,,,,
Ireland,ntl,Cable,Broadband starter, 2 000,, 16 000,31.82,22.73,15.91,11.37,,,,,,,,,,,,,,,,,,,
Ireland,ntl,Cable,Broadband, 3 000,, 30 000,38.19,27.28,12.73,9.09,,,,,,,,,,,,,,,,,,,
Ireland,ntl,Cable,Broadband Max, 6 000,, 40 000,50.92,36.37,8.49,6.06,,,,,,,,,,,,,,,,,,,
Ireland,Smart Telecom,FTTx,Smart broadband, 6 000,256,  ,44.57,31.83,7.43,5.31,,,,,,,,,,,,,,,,,,,
Ireland,,,, 3 009,127, 18 500,40.33,28.8,17.53,12.52,,,,,,,,,,,,,,,,,,,
Italy,Alice,ADSL,Flat a 2 Mega, 2 000,256,  ,25.4,23.52,12.7,11.76,,,,,,,,,,,,,,,,,,,
Italy,Alice,ADSL,20Mega, 20 000,,  ,47.05,43.57,2.35,2.18,,,,,,,,,,,,,,,,,,,
Italy,Tiscali,ADSL,4 mega flat, 4 000,,  ,25.4,23.52,6.35,5.88,,,,,,,,,,,,,,,,,,,
Italy,Tiscali,ADSL,12 mega flat, 12 000,,  ,38.14,35.31,3.18,2.94,,,,,,,,,,,,,,,,,,,
Italy,Tiscali,ADSL,24 mega flat, 24 000,,  ,50.87,47.1,2.12,1.96,,,,,,,,,,,,,,,,,,,
Italy,Fastweb,ADSL,Giorno e Notte, 6 000, 1 000,  ,40.75,37.73,6.79,6.29,,,,,,,,,,,,,,,,,,,
Italy,Fastweb,ADSL,Giorno e Notte, 20 000, 1 000,  ,40.75,37.73,2.04,1.89,,,,,,,,,,,,,,,,,,,
Italy,Fastweb,FTTx,Giorno e Notte, 10 000, 10 000,  ,40.75,37.73,4.07,3.77,,,,,,,,,,,,,,,,,,,
Italy,Alice,Sat,Sat,640,34,  ,19.04,17.63,29.75,27.54,,,,,,,,,,,,,,,,,,,
Italy,,,, 10 960, 1 366,  ,36.46,33.76,7.71,7.14,,,,,,,,,,,,,,,,,,,
Japan,NTT,ADSL,Residential ADSL, 47 000, 5 000,  ,35.57,28.69,0.76,0.61,3643.5 +525 for ISP with tax,,,,,,,,,,,,,,,,,,
Japan,Yahoo! BB,ADSL,50M Revo, 50 500, 12 500,  ,38.58,31.11,0.76,0.62,,,,,,,,,,,,,,,,,,,
Japan,Yahoo! BB,ADSL,50M, 50 000, 3 000,  ,35.89,28.94,0.72,0.58,,,,,,,,,,,,,,,,,,,
Japan,Yahoo! BB,ADSL,26M, 26 000, 1 000,  ,35,28.22,1.35,1.09,,,,,,,,,,,,,,,,,,,
Japan,Yahoo! BB,ADSL,12M, 12 000, 1 000,  ,32.31,26.05,2.69,2.17,,,,,,,,,,,,,,,,,,,
Japan,Yahoo! BB,ADSL,8M, 8 000,900,  ,28.72,23.16,3.59,2.9,,,,,,,,,,,,,,,,,,,
Japan,Yahoo! BB,ADSL,Reach DSL,960,960,  ,28.72,23.16,29.92,24.13,,,,,,,,,,,,,,,,,,,
Japan,J:COM,Cable,Premier, 30 000, 2 000,  ,49.28,39.74,1.64,1.32,"5,775 after tax. ",,,,,,,,,,,,,,,,,,
Japan,J:COM,Cable,Standard, 8 000, 2 000,  ,44.62,35.99,5.58,4.5,5229 after tax,,,,,,,,,,,,,,,,,,
Japan,J:COM,Cable,Light,256,128,  ,24.64,19.87,96.27,77.64,2888 after tax,,,,,,,,,,,,,,,,,,
Japan,NTT,FTTx,Apartment VDSL/LAN, 100 000, 100 000,  ,30.82,24.86,0.31,0.25,"(2940) where the 500 is theISP fee. After tax, 3087+525 for isp charge",,,,,,,,,,,,,,,,,,
Japan,NTT,FTTx,Residential fibre, 100 000, 100 000,  ,49.01,39.53,0.49,0.4,5743.5 with tax included. Residential and with ISP fee included with line. ,,,,,,,,,,,,,,,,,,
Japan,Yahoo! BB,FTTx,Fiber (Home), 100 000, 100 000,  ,61.73,49.78,0.62,0.5,7234 with tax included. ,,,,,,,,,,,,,,,,,,
Japan,Yahoo! BB,FTTx,Fibre (Apartment), 100 000, 100 000,  ,26.7,21.53,0.27,0.22,"3129 after tax if in an apartment (""mansion"")",,,,,,,,,,,,,,,,,,
Japan,NTT,VDSL,Apartment VDSL/LAN, 100 000, 100 000,  ,35.3,28.47,0.35,0.28,"(2940+500) where 500 is the extra VDSL fee if no LAN is available. After tax, 3087+525+525 for isp and vdsl charge",,,,,,,,,,,,,,,,,,
Japan,,,, 48 848, 35 233,  ,37.13,29.94,9.69,7.81,,,,,,,,,,,,,,,,,,,
Korea,KT,ADSL,Lite ADSL, 4 000,460,  ,34.62,38.05,8.66,9.51,"VAT not included. Prices are for subscription without commitment. Prices fall when subscribers sign up for 1,2, or 3 years. Modem rental included.",,,,,,,,,,,,,,,,,,
Korea,KT,ADSL/VDSL,Premium, 13 000, 4 000,  ,46.17,50.73,3.55,3.9,"VAT not included. Prices are for subscription without commitment. Prices fall when subscribers sign up for 1,2, or 3 years. Modem rental included.",,,,,,,,,,,,,,,,,,
Korea,Hanaro,ADSL/VDSL,Pro, 20 000, 6 000,  ,43.86,48.19,2.19,2.41,"Price does not include 8000 for modem. Prices are for plans with no commitment. Plans are available for 1,2, and 3 years with a significant discount.",,,,,,,,,,,,,,,,,,
Korea,C&M,Cable,Speed, 4 000,,  ,35.78,39.32,8.94,9.83,"VAT included and accounted for. Price is for no commitment. Discounts for 1,2, and 3 years are available. Modem rental fee included",,,,,,,,,,,,,,,,,,
Korea,C&M,Cable,Max, 10 000, 1 000,  ,39.87,43.81,3.99,4.38,"VAT included and accounted for. Price is for no commitment. Discounts for 1,2, and 3 years are available. Modem rental fee included",,,,,,,,,,,,,,,,,,
Korea,Hanaro,Cable,Pro, 20 000,768,  ,39.24,43.12,1.96,2.16,"Price does not include 8000 for modem. Prices are for plans with no commitment. Plans are available for 1,2, and 3 years with a significant discount.",,,,,,,,,,,,,,,,,,
Korea,Hanaro,Cable,Lite, 10 000, 10 000,  ,32.32,35.51,3.23,3.55,"Price does not include 8000 for modem. Prices are for plans with no commitment. Plans are available for 1,2, and 3 years with a significant discount.",,,,,,,,,,,,,,,,,,
Korea,KT,FTTx,Megapass Ntopia, 100 000, 100 000,  ,41.55,45.66,0.42,0.46,"Specifically for apartments (FTTB). VAT not included. Prices are for subscription without commitment. Prices fall when subscribers sign up for 1,2, or 3 years. ",,,,,,,,,,,,,,,,,,
Korea,Hanaro,FTTx,Lite, 10 000, 10 000,  ,32.32,35.51,3.23,3.55,"Price does not include 8000 for modem. Prices are for plans with no commitment. Plans are available for 1,2, and 3 years with a significant discount.",,,,,,,,,,,,,,,,,,
Korea,Hanaro,FTTx,Û┤æÙ×£, 100 000, 100 000,  ,38.09,41.85,0.38,0.42,"Prices are for plans with no commitment. Plans are available for 1,2, and 3 years with a significant discount.",,,,,,,,,,,,,,,,,,
Korea,KT,VDSL,Lite VDSL, 4 000, 4 000,  ,34.62,38.05,8.66,9.51,"VAT not included. Prices are for subscription without commitment. Prices fall when subscribers sign up for 1,2, or 3 years. Modem rental included.",,,,,,,,,,,,,,,,,,
Korea,KT,VDSL,Megapass VDSL - Special 1, 20 000, 4 000,  ,48.47,53.27,2.42,2.66,"VAT not included. Prices are for subscription without commitment. Prices fall when subscribers sign up for 1,2, or 3 years. Modem rental included.",,,,,,,,,,,,,,,,,,
Korea,KT,VDSL,Megapass VDSL - Special II, 50 000, 4 000,  ,51.94,57.07,1.04,1.14,"VAT not included. Prices are for subscription without commitment. Prices fall when subscribers sign up for 1,2, or 3 years. Modem rental included.",,,,,,,,,,,,,,,,,,
Korea,Hanaro,VDSL,Dream II, 50 000, 6 000,  ,49.63,54.54,0.99,1.09,"Price does not include 8000 for modem. Prices are for plans with no commitment. Plans are available for 1,2, and 3 years with a significant discount.",,,,,,,,,,,,,,,,,,
Korea,Hanaro,VDSL,Dream I, 20 000, 6 000,  ,46.17,50.73,2.31,2.54,"Price does not include 8000 for modem. Prices are for plans with no commitment. Plans are available for 1,2, and 3 years with a significant discount.",,,,,,,,,,,,,,,,,,
Korea,,,, 29 000, 17 082,  ,40.98,45.03,3.46,3.81,,,,,,,,,,,,,,,,,,,
Luxembourg,EPT,ADSL,LuxDSL / SpeedSurf Junior, 1 000,128, 2 000,36.93,32.39,36.93,32.39,,,,,,,,,,,,,,,,,,,
Luxembourg,EPT,ADSL,LuxDSL / SpeedSurf Run, 2 000,192, 15 000,59.85,52.5,29.92,26.25,,,,,,,,,,,,,,,,,,,
Luxembourg,EPT,ADSL,LuxDSL / SpeedSurf Express, 3 000,192,  ,100.6,88.24,33.53,29.41,,,,,,,,,,,,,,,,,,,
Luxembourg,Cegecom,ADSL,Basic, 1 000,128, 15 000,33.24,29.15,33.24,29.15,"EUR 0.3 for each MB over limit, does not include line rental fee",,,,,,,,,,,,,,,,,,
Luxembourg,Cegecom,ADSL,Standard, 2 000,192, 25 000,48.13,42.22,24.07,21.11,"EUR 0.3 for each MB over limit, does not include line rental fee",,,,,,,,,,,,,,,,,,
Luxembourg,Cegecom,ADSL,Advanced, 2 000,192,  ,53.86,47.25,26.93,23.62,No line rental fee included,,,,,,,,,,,,,,,,,,
Luxembourg,Cegecom,ADSL,Pro, 3 000,192,  ,90.54,79.42,30.18,26.47,No line rental fee included,,,,,,,,,,,,,,,,,,
Luxembourg,Coditel,Cable,Lightclick, 1 000,128, 1 000,22.79,19.99,22.79,19.99,EUR 2 for each GB over the limit.,,,,,,,,,,,,,,,,,,
Luxembourg,Coditel,Cable,Speedclick, 6 000,256, 25 000,44.44,38.98,7.41,6.5,EUR 2 for each GB over the limit.,,,,,,,,,,,,,,,,,,
Luxembourg,Coditel,Cable,Megaclick, 10 000,512, 35 000,94.23,82.66,9.42,8.27,EUR 2 for each GB over the limit.,,,,,,,,,,,,,,,,,,
Luxembourg,,,, 3 100,211, 11 800,58.46,51.28,25.44,22.32,,,,,,,,,,,,,,,,,,,
Mexico,Telmex,ADSL,Hasta 1024 kbps, 1 024,,  ,42.03,60.91,41.04,59.48,,,,,,,,,,,,,,,,,,,
Mexico,Telmex,ADSL,Hasta 2048, 2 048,,  ,72.13,104.54,35.22,51.05,,,,,,,,,,,,,,,,,,,
Mexico,Telmex,ADSL,Hasta 4096, 4 096,,  ,553.83,802.65,135.21,195.96,,,,,,,,,,,,,,,,,,,
Mexico,Megacable,Cable,1024Kbps, 1 024,,  ,36.13,52.36,35.28,51.13,,,,,,,,,,,,,,,,,,,
Mexico,Megacable,Cable,1500Kbps, 1 500,,  ,41.78,60.55,27.85,40.37,,,,,,,,,,,,,,,,,,,
Mexico,Megacable,Cable,2048Kbps, 2 048,,  ,48.07,69.66,23.47,34.01,,,,,,,,,,,,,,,,,,,
Mexico,Cablevision,Cable,256 kbps,256,,  ,39.27,56.91,153.39,222.31,Includes taxes,,,,,,,,,,,,,,,,,,
Mexico,Cablevision,Cable,512 kbps,512,,  ,60.21,87.26,117.6,170.44,Includes taxes,,,,,,,,,,,,,,,,,,
Mexico,Cablevision,Cable,1024 kbps, 1 024,,  ,114.46,165.88,111.77,161.99,Includes taxes,,,,,,,,,,,,,,,,,,
Mexico,,,, 1 504,  ,  ,111.99,162.3,75.65,109.64,,,,,,,,,,,,,,,,,,,
Netherlands,KPN,ADSL,Direct ADSL Lite , 3 000,512,  ,38.14,33.75,12.71,11.25,First month is free.,,,,,,,,,,,,,,,,,,
Netherlands,KPN,ADSL,Direct ADSL Go, 1 500,256,  ,27.95,24.74,18.63,16.49,,,,,,,,,,,,,,,,,,,
Netherlands,KPN,ADSL,Direct ADSL Basic, 6 000,768,  ,63.61,56.29,10.6,9.38,,,,,,,,,,,,,,,,,,,
Netherlands,Het Net,ADSL,Instap Surfen, 1 500,256,  ,25.4,22.48,16.94,14.99,Six month reduced price of EUR 9.95,,,,,,,,,,,,,,,,,,
Netherlands,Het Net,ADSL,Snel Surfen, 4 000,256,  ,31.77,28.12,7.94,7.03,,,,,,,,,,,,,,,,,,,
Netherlands,Planet Internet,ADSL,Easy, 1 000,128,  ,25.4,22.48,25.4,22.48,,,,,,,,,,,,,,,,,,,
Netherlands,Planet Internet,ADSL,Standard, 3 000,512,  ,44.44,39.33,14.81,13.11,,,,,,,,,,,,,,,,,,,
Netherlands,Planet Internet,ADSL,Comfort, 6 000,768,  ,69.97,61.92,11.66,10.32,,,,,,,,,,,,,,,,,,,
Netherlands,Casema,Cable,Midi, 1 600,300,  ,25.4,22.48,15.88,14.05,Reduced price available for first 6 months,,,,,,,,,,,,,,,,,,
Netherlands,Casema,Cable,Multi, 4 200,660,  ,41.96,37.13,9.99,8.84,,,,,,,,,,,,,,,,,,,
Netherlands,Casema,Cable,Maxi, 6 400,880,  ,63.03,55.78,9.85,8.72,,,,,,,,,,,,,,,,,,,
Netherlands,Casema,Cable,Mega, 12 500, 1 050,  ,89.07,78.83,7.13,6.31,,,,,,,,,,,,,,,,,,,
Netherlands,UPC,Cable,chello starter,384,128,  ,19.04,16.85,49.58,43.87,,,,,,,,,,,,,,,,,,,
Netherlands,UPC,Cable,chello easy, 1 536,256,  ,29.22,25.86,19.03,16.84,,,,,,,,,,,,,,,,,,,
Netherlands,UPC,Cable,chello light, 3 072, 1 024,  ,41.96,37.13,13.66,12.09,,,,,,,,,,,,,,,,,,,
Netherlands,UPC,Cable,chello classic, 8 192, 1 024,  ,63.61,56.29,7.76,6.87,Discount available for the first year.,,,,,,,,,,,,,,,,,,
Netherlands,UPC,Cable,chello extreme, 20 480, 2 048,  ,76.34,67.56,3.73,3.3,,,,,,,,,,,,,,,,,,,
Netherlands,,,, 4 963,637,  ,45.67,40.41,15.02,13.29,,,,,,,,,,,,,,,,,,,
New Zealand,Telecom,ADSL,Xtra Broadband BASIC,256,,200,19.6,20.21,76.56,78.93,NZD 10 more if all direct dial calling with TCNZ. NZD 0.02 for each MB above limit,,,,,,,,,,,,,,,,,,
New Zealand,Telecom,ADSL,Xtra Broadband GO, 2 000,128, 1 000,26.14,26.95,13.07,13.48,NZD 10 more if all direct dial calling with TCNZ,,,,,,,,,,,,,,,,,,
New Zealand,Telecom,ADSL,Xtra Broadband EXPLORER, 3 500,128, 5 000,32.69,33.7,9.34,9.63,NZD 10 more if all direct dial calling with TCNZ,,,,,,,,,,,,,,,,,,
New Zealand,Telecom,ADSL,Xtra Broadband ADVENTURE, 3 500,128, 10 000,39.23,40.45,11.21,11.56,NZD 10 more if all direct dial calling with TCNZ,,,,,,,,,,,,,,,,,,
New Zealand,Telecom,ADSL,Xtra Broadband PRO, 3 500,512, 10 000,52.32,53.94,14.95,15.41,NZD 10 more if all direct dial calling with TCNZ,,,,,,,,,,,,,,,,,,
New Zealand,Telecom,ADSL,Xtra Broadband PRO ADVANCED, 3 500,512, 20 000,65.41,67.43,18.69,19.27,NZD 10 more if all direct dial calling with TCNZ,,,,,,,,,,,,,,,,,,
New Zealand,Telecom,ADSL,Xtra Broadband PRO ULTRA, 3 500,512, 40 000,98.13,101.16,28.04,28.9,NZD 10 more if all direct dial calling with TCNZ,,,,,,,,,,,,,,,,,,
New Zealand,TelstraClear,Cable,HighSpeed 10G, 4 000, 2 000, 10 000,53.6,55.25,13.4,13.81,NZD 2.95 per GB after limit,,,,,,,,,,,,,,,,,,
New Zealand,TelstraClear,Cable,HighSpeed 20G, 4 000, 2 000, 20 000,66.68,68.75,16.67,17.19,NZD 2.95 per GB after limit,,,,,,,,,,,,,,,,,,
New Zealand,TelstraClear,Cable,LightSpeed 40G, 10 000, 2 000, 40 000,86.32,88.99,8.63,8.9,NZD 2.95 per GB after limit,,,,,,,,,,,,,,,,,,
New Zealand,TelstraClear,Cable,LightSpeed 80G, 10 000, 2 000, 80 000,112.49,115.97,11.25,11.6,NZD 2.95 per GB after limit,,,,,,,,,,,,,,,,,,
New Zealand,Woosh,Wireless,Entry, 1 600,120,200,16.35,16.86,10.22,10.54,NZD 0.06 per MB after cap up until limit of 59.95/month,,,,,,,,,,,,,,,,,,
New Zealand,Woosh,Wireless,Elevate, 1 600,120,500,19.63,20.23,12.27,12.65,After reaching bitcap speeds are reduced to 64 kbit/s. ,,,,,,,,,,,,,,,,,,
New Zealand,Woosh,Wireless,Express 2, 1 600,120, 2 000,26.14,26.95,16.34,16.85,After reaching bitcap speeds are reduced to 64 kbit/s. ,,,,,,,,,,,,,,,,,,
New Zealand,Woosh,Wireless,Express 5, 1 600,120, 5 000,32.69,33.7,20.43,21.06,After reaching bitcap speeds are reduced to 64 kbit/s. ,,,,,,,,,,,,,,,,,,
New Zealand,Woosh,Wireless,Express 10, 1 600,120, 10 000,39.23,40.45,24.52,25.28,After reaching bitcap speeds are reduced to 64 kbit/s. ,,,,,,,,,,,,,,,,,,
New Zealand,,,, 3 485,658, 15 869,49.17,50.69,19.1,19.69,,,,,,,,,,,,,,,,,,,
Norway,Telenor,ADSL,ADSL Mini,700,160,  ,46.02,30.68,65.74,43.83,,,,,,,,,,,,,,,,,,,
Norway,Telenor,ADSL,ADSL Basis, 1 500,300,  ,53.72,35.81,35.81,23.87,,,,,,,,,,,,,,,,,,,
Norway,Telenor,ADSL,ADSL Pluss, 3 000,350,  ,64.49,42.99,21.5,14.33,,,,,,,,,,,,,,,,,,,
Norway,Telenor,ADSL,ADSL Ekstra, 6 000,500,  ,76.8,51.2,12.8,8.53,,,,,,,,,,,,,,,,,,,
Norway,Telenor,ADSL,ADSL Max, 16 000,700,  ,84.5,56.33,5.28,3.52,,,,,,,,,,,,,,,,,,,
Norway,Get,Cable,Easy,512,128,  ,30.01,20.01,58.62,39.08,,,,,,,,,,,,,,,,,,,
Norway,Get,Cable,Easy,512,256,  ,40.63,27.09,79.36,52.91,,,,,,,,,,,,,,,,,,,
Norway,Get,Cable,Light, 1 500,300,  ,42.94,28.63,28.63,19.09,,,,,,,,,,,,,,,,,,,
Norway,Get ,Cable,Light, 1 500,600,  ,53.56,35.71,35.71,23.81,,,,,,,,,,,,,,,,,,,
Norway,Get,Cable,Classic, 3 000,512,  ,58.33,38.89,19.44,12.96,,,,,,,,,,,,,,,,,,,
Norway,Get,Cable,Classic, 3 000, 1 000,  ,68.95,45.97,22.98,15.32,,,,,,,,,,,,,,,,,,,
Norway,Get,Cable,Plus, 6 000,768,  ,73.73,49.15,12.29,8.19,,,,,,,,,,,,,,,,,,,
Norway,Get,Cable,Plus, 6 000, 1 500,  ,88.96,59.31,14.83,9.88,,,,,,,,,,,,,,,,,,,
Norway,Get,Cable,Ultra, 10 000, 1 024,  ,89.12,59.41,8.91,5.94,,,,,,,,,,,,,,,,,,,
Norway,Get,Cable,Ultra, 10 000, 2 000,  ,104.36,69.57,10.44,6.96,,,,,,,,,,,,,,,,,,,
Norway,Get,Cable,Extreme, 26 000, 1 500,  ,138.22,92.15,5.32,3.54,,,,,,,,,,,,,,,,,,,
Norway,Get,Cable,Extreme, 26 000, 3 000,  ,153.46,102.3,5.9,3.93,,,,,,,,,,,,,,,,,,,
Norway,Lyse,FTTx,Internett Familie, 6 000, 6 000,  ,69.11,46.07,11.52,7.68,Does not include signficant fee for connection,,,,,,,,,,,,,,,,,,
Norway,Lyse,FTTx,Internett Ekspress, 20 000, 10 000,  ,107.59,71.73,5.38,3.59,Does not include signficant fee for connection,,,,,,,,,,,,,,,,,,
Norway,Lyse,FTTx,Internett 50/25, 50 000, 25 000,  ,223.18,148.79,4.46,2.98,Does not include signficant fee for connection,,,,,,,,,,,,,,,,,,
Norway,,,, 9 861, 2 780,  ,83.38,55.59,23.25,15.5,,,,,,,,,,,,,,,,,,,
Poland,TP,ADSL,1 MB, 1 024,,  ,24.38,38.09,23.81,37.2,All prices are for 12 month subscription. Discounts are available for the first few months depending on the number of years of the subscription (1-3),,,,,,,,,,,,,,,,,,
Poland,TP,ADSL,2 MB, 2 048,,  ,43.62,68.16,21.3,33.28,All prices are for 12 month subscription. Discounts are available for the first few months depending on the number of years of the subscription (1-3),,,,,,,,,,,,,,,,,,
Poland,TP,ADSL,6 MB, 6 144,,  ,50.03,78.18,8.14,12.72,All prices are for 12 month subscription. Discounts are available for the first few months depending on the number of years of the subscription (1-3),,,,,,,,,,,,,,,,,,
Poland,TP,ADSL,512 KB,512,,  ,21.17,33.08,41.34,64.6,With a 2 year commitment,,,,,,,,,,,,,,,,,,
Poland,Dialog,ADSL,TelePakiet DSL 256 / 180,256,180,  ,38.74,60.53,151.32,236.44,Gross cost,,,,,,,,,,,,,,,,,,
Poland,Dialog,ADSL,TelePakiet DSL 256 / 60,256,60,  ,31.75,49.61,124.03,193.8,Gross cost,,,,,,,,,,,,,,,,,,
Poland,UPC,Cable,chello ultra, 12 000, 1 024,  ,95.9,149.84,7.99,12.49,"20,00 z┼é rebate per month for a 12 month contract. for cable TV subscribers. 10,00 z┼é rebate for current cable TV subscribers",,,,,,,,,,,,,,,,,,
Poland,UPC,Cable,chello plus, 6 000, 1 024,  ,79.86,124.78,13.31,20.8,"20,00 z┼é rebate per month for a 12 month contract. for cable TV subscribers. 10,00 z┼é rebate for current cable TV subscribers",,,,,,,,,,,,,,,,,,
Poland,UPC,Cable,chello easy,512,64,  ,28.54,44.6,55.75,87.11,"20,00 z┼é rebate per month for a 12 month contract. for cable TV subscribers. 10,00 z┼é rebate for current cable TV subscribers",,,,,,,,,,,,,,,,,,
Poland,UPC,Cable,chello light, 1 500,256,  ,36.56,57.13,24.38,38.09,"20,00 z┼é rebate per month for a 12 month contract. for cable TV subscribers. 10,00 z┼é rebate for current cable TV subscribers",,,,,,,,,,,,,,,,,,
Poland,UPC,Cable,chello classic, 3 000,384,  ,54.2,84.69,18.07,28.23,"20,00 z┼é rebate per month for a 12 month contract. for cable TV subscribers. 10,00 z┼é rebate for current cable TV subscribers",,,,,,,,,,,,,,,,,,
Poland,,,, 3 023,272,  ,45.89,71.7,44.49,69.52,,,,,,,,,,,,,,,,,,,
Portugal,Portugal Telecom,ADSL,512kb,512,128, 1 000,31.82,37.44,62.15,73.12,,,,,,,,,,,,,,,,,,,
Portugal,Portugal Telecom,ADSL,4Mb, 4 096,256, 10 000,45.31,53.3,11.06,13.01,,,,,,,,,,,,,,,,,,,
Portugal,Portugal Telecom,ADSL,8Mb, 8 128,384, 30 000,63.03,74.16,7.76,9.12,,,,,,,,,,,,,,,,,,,
Portugal,TV Cabo,Cable,256,256,128, 1 000,31.82,37.44,124.31,146.24,,,,,,,,,,,,,,,,,,,
Portugal,TV Cabo,Cable,MEGA 4, 4 096,256, 10 000,45.32,53.32,11.06,13.02,,,,,,,,,,,,,,,,,,,
Portugal,TV Cabo,Cable,MEGA 8, 8 000,384, 30 000,63.03,74.16,7.88,9.27,,,,,,,,,,,,,,,,,,,
Portugal,Cabovisao,Cable,Internet at├® 2M, 2 000,, 10 000,40.75,47.94,20.37,23.97,,,,,,,,,,,,,,,,,,,
Portugal,Cabovisao,Cable,Internet at├® 4M, 4 000,, 15 000,50.24,59.1,12.56,14.78,,,,,,,,,,,,,,,,,,,
Portugal,Cabovisao,Cable,Internet at├® 8M, 8 000,, 30 000,50.94,59.92,6.37,7.49,,,,,,,,,,,,,,,,,,,
Portugal,,,, 5 735,140, 15 636,45.89,53.99,25.03,29.44,,,,,,,,,,,,,,,,,,,
Slovak Republic,Slovak Telecom,ADSL,Pohoda 600, 1 024,256,600,20.16,31.5,19.69,30.76,,,,,,,,,,,,,,,,,,,
Slovak Republic,Slovak Telecom,ADSL,Pohoda 1000, 1 024,256, 1 000,24.2,37.81,23.63,36.92,,,,,,,,,,,,,,,,,,,
Slovak Republic,Slovak Telecom,ADSL,Pohoda 2000, 1 024,256, 2 000,28.24,44.12,27.57,43.09,,,,,,,,,,,,,,,,,,,
Slovak Republic,Slovak Telecom,ADSL,Pohoda 5000, 1 024,256, 5 000,40.36,63.06,39.41,61.58,,,,,,,,,,,,,,,,,,,
Slovak Republic,Slovak Telecom,ADSL,Maxi Klasik, 1 024,256,  ,32.28,50.43,31.52,49.25,,,,,,,,,,,,,,,,,,,
,,,,,,,,,,,,,,,,,,,,,,,,,,,,,
Slovak Republic,Dial Telecom,ADSL,Dial mini flat, 1 024,256,  ,20.16,31.5,19.69,30.76,,,,,,,,,,,,,,,,,,,
Slovak Republic,UPC,Cable,chello easy, 1 024,128,,27.11,42.35,26.47,41.36,,,,,,,,,,,,,,,,,,,
Slovak Republic,UPC,Cable,chello light, 2 048,256,,37.33,58.32,18.23,28.48,,,,,,,,,,,,,,,,,,,
Slovak Republic,UPC,Cable,chello classic, 4 096,384,,57.69,90.13,14.08,22.01,,,,,,,,,,,,,,,,,,,
Slovak Republic,UPC,Cable,chello extreme, 10 240, 1 024,,91.62,143.15,8.95,13.98,,,,,,,,,,,,,,,,,,,
Slovak Republic,UPC,Cable,chello professional, 8 092,512,,169.7,265.16,20.97,32.77,,,,,,,,,,,,,,,,,,,
Slovak Republic,,,, 2 877,349,782,49.89,77.96,22.75,35.54,,,,,,,,,,,,,,,,,,,
Spain,Telefonica,ADSL,Linea ADSL 24 h, 1 000,320,  ,57.71,58.89,57.71,58.89,,,,,,,,,,,,,,,,,,,
Spain,Telefonica,ADSL,Linea ADSL 24 h, 2 000,320,  ,110.76,113.02,55.38,56.51,,,,,,,,,,,,,,,,,,,
Spain,Telefonica,ADSL,Linea ADSL 24 h, 4 000,512,  ,177.26,180.87,44.31,45.22,,,,,,,,,,,,,,,,,,,
Spain,Telefonica,ADSL,Linea ADSL 24 h, 8 000,640,  ,222.41,226.95,27.8,28.37,,,,,,,,,,,,,,,,,,,
Spain,Jazztel,ADSL,ADSL 1024 M├│dem, 1 024,300,  ,56.06,57.2,54.74,55.86,,,,,,,,,,,,,,,,,,,
Spain,Jazztel,ADSL,ADSL hasta 6 Megas, 6 144,512,  ,48.67,49.67,7.92,8.08,,,,,,,,,,,,,,,,,,,
Spain,Jazztel,ADSL,ADSL hasta 20 Megas, 20 480, 1 024,  ,44.24,45.14,2.16,2.2,,,,,,,,,,,,,,,,,,,
Spain,Auna,Cable,Banda Ancha ONO 24h (4 Megas), 4 000,300,  ,51.7,52.76,12.92,13.19,,,,,,,,,,,,,,,,,,,
Spain,,,, 5 831,491,  ,96.1,98.06,32.87,33.54,,,,,,,,,,,,,,,,,,,
Sweden,TeliaSonera,ADSL,24 Mbit/s, 24 000, 1 000,  ,54.78,43.47,2.28,1.81,,,,,,,,,,,,,,,,,,,
Sweden,TeliaSonera,ADSL,8 Mbit/s, 8 000,800,  ,50.66,40.21,6.33,5.03,,,,,,,,,,,,,,,,,,,
Sweden,TeliaSonera,ADSL,2 Mbit/s, 2 000,400,  ,45.17,35.85,22.58,17.92,,,,,,,,,,,,,,,,,,,
Sweden,TeliaSonera,ADSL,"0,25 Mbit/s",256,128,  ,31.44,24.95,122.81,97.47,,,,,,,,,,,,,,,,,,,
Sweden,Glocalnet,ADSL,Bredband 2, 2 000,,,34.18,27.13,17.09,13.57,,,,,,,,,,,,,,,,,,,
Sweden,Glocalnet,ADSL,Bredband 8, 8 000,,,38.3,30.4,4.79,3.8,,,,,,,,,,,,,,,,,,,
Sweden,Glocalnet,ADSL,Bredband 24, 24 000,,,41.05,32.58,1.71,1.36,,,,,,,,,,,,,,,,,,,
Sweden,Bredbandsbolaget,ADSL,Bredband 24, 24 000, 1 000,,47.91,38.03,2,1.58,,,,,,,,,,,,,,,,,,,
Sweden,Bredbandsbolaget,ADSL,Bredband 8, 8 000, 1 000,,43.79,34.76,5.47,4.34,,,,,,,,,,,,,,,,,,,
Sweden,Bredbandsbolaget,ADSL,Bredband 2, 2 000, 1 000,,38.3,30.4,19.15,15.2,,,,,,,,,,,,,,,,,,,
Sweden,Com Hem,Cable,Small,256,128,  ,13.59,10.79,53.09,42.14,,,,,,,,,,,,,,,,,,,
Sweden,Com Hem,Cable,Medium, 8 192, 1 024,  ,41.05,32.58,5.01,3.98,,,,,,,,,,,,,,,,,,,
Sweden,Com Hem,Cable,Large, 24 576, 1 024,  ,50.66,40.21,2.06,1.64,,,,,,,,,,,,,,,,,,,
Sweden,Com Hem,Cable,Large, 24 576, 8 000,  ,58.9,46.74,2.4,1.9,,,,,,,,,,,,,,,,,,,
Sweden,Bredbandsbolaget,FTTx,Bredband 100, 100 000, 10 000,,43.93,34.87,0.44,0.35,,,,,,,,,,,,,,,,,,,
Sweden,Bredbandsbolaget,FTTx,Bredband 100, 2 000, 1 000,,31.44,24.95,15.72,12.48,,,,,,,,,,,,,,,,,,,
Sweden,,,, 16 366, 1 657,  ,41.57,32.99,17.68,14.03,,,,,,,,,,,,,,,,,,,
Switzerland,Bluewin,ADSL,ADSL 2000, 2 000,100,  ,39.39,27.54,19.69,13.77,,,,,,,,,,,,,,,,,,,
Switzerland,Bluewin,ADSL,ADSL 3500, 3 500,300,  ,55.46,38.78,15.85,11.08,,,,,,,,,,,,,,,,,,,
Switzerland,Bluewin,ADSL,ADSL 5000, 5 000,300,  ,79.58,55.65,15.92,11.13,,,,,,,,,,,,,,,,,,,
Switzerland,Tele2,ADSL,ADSL 2000/100, 2 000,100,  ,35.37,24.73,17.68,12.37,,,,,,,,,,,,,,,,,,,
Switzerland,Tele2,ADSL,ADSL 3500/300, 3 500,300,  ,51.44,35.97,14.7,10.28,,,,,,,,,,,,,,,,,,,
Switzerland,Tele2,ADSL,ADSL 5000/300, 5 000,300,  ,75.56,52.84,15.11,10.57,,,,,,,,,,,,,,,,,,,
Switzerland,Cablecom,Cable,hispeed 3000, 3 000,300,  ,17.92,12.53,5.97,4.18,,,,,,,,,,,,,,,,,,,
Switzerland,Cablecom,Cable,hispeed 4000, 4 000,400,  ,24.11,16.86,6.03,4.22,,,,,,,,,,,,,,,,,,,
Switzerland,Cablecom,Cable,hispeed 6000, 6 000,600,  ,38.18,26.7,6.36,4.45,,,,,,,,,,,,,,,,,,,
Switzerland,,,, 3 778,300,  ,46.33,32.4,13.03,9.12,,,,,,,,,,,,,,,,,,,
Turkey,T├╝rk Telekom,ADSL,Toptan,256,64,  ,24.18,35.56,94.44,138.89,,,,,,,,,,,,,,,,,,,
Turkey,T├╝rk Telekom,ADSL,Toptan,512,128,  ,43.91,64.58,85.77,126.13,,,,,,,,,,,,,,,,,,,
Turkey,T├╝rk Telekom,ADSL,Toptan, 1 024,256,  ,68.59,100.86,66.98,98.5,,,,,,,,,,,,,,,,,,,
Turkey,T├╝rk Telekom,ADSL,Toptan, 2 048,512,  ,112.99,166.16,55.17,81.13,,,,,,,,,,,,,,,,,,,
Turkey,Topaz,Cable,,256,64,  ,33.23,48.87,129.81,190.9,,,,,,,,,,,,,,,,,,,
Turkey,Topaz,Cable,,512,128,  ,67.14,98.74,131.14,192.85,,,,,,,,,,,,,,,,,,,
Turkey,Topaz,Cable,, 1 024,256,  ,128.18,188.5,125.17,184.08,,,,,,,,,,,,,,,,,,,
Turkey,Topaz,Cable,, 2 048,512,  ,196,288.23,95.7,140.74,,,,,,,,,,,,,,,,,,,
Turkey,,,,960,240,  ,84.28,123.94,98.02,144.15,,,,,,,,,,,,,,,,,,,
United Kingdom,BT,ADSL,Option 3, 8 000,, 2 000,33.92,29,4.24,3.62,,,,,,,,,,,,,,,,,,,
United Kingdom,BT,ADSL,Option 2, 8 000,, 6 000,43.35,37.05,5.42,4.63,,,,,,,,,,,,,,,,,,,
United Kingdom,BT,ADSL,Option 1, 8 000,, 40 000,50.9,43.5,6.36,5.44,,,,,,,,,,,,,,,,,,,
United Kingdom,Homechoice,ADSL,Base pack, 2 000,288,  ,33.92,29,16.96,14.5,,,,,,,,,,,,,,,,,,,
United Kingdom,Homechoice,ADSL,Base pack, 4 000,416,  ,43.35,37.05,10.84,9.26,,,,,,,,,,,,,,,,,,,
United Kingdom,Homechoice,ADSL,Base pack, 8 000,512,  ,52.78,45.11,6.6,5.64,,,,,,,,,,,,,,,,,,,
United Kingdom,Telewest,Cable,Broadband, 2 000,256,  ,33.92,29,16.96,14.5,,,,,,,,,,,,,,,,,,,
United Kingdom,Telewest,Cable,Broadband complete, 4 000,384,  ,47.14,40.29,11.79,10.07,,,,,,,,,,,,,,,,,,,
United Kingdom,Telewest,Cable,Broadband elite, 10 000,384,  ,66,56.41,6.6,5.64,,,,,,,,,,,,,,,,,,,
United Kingdom,,,, 6 000,249, 5 333,45.03,38.49,9.53,8.15,,,,,,,,,,,,,,,,,,,
United States,att,ADSL,Basic,768,128,  ,15.93,15.93,20.74,20.74,,,,,,,,,,,,,,,,,,,
United States,att,ADSL,Express, 1 500,384,  ,21.24,21.24,14.16,14.16,,,,,,,,,,,,,,,,,,,
United States,att,ADSL,Pro, 3 000,512,  ,26.55,26.55,8.85,8.85,,,,,,,,,,,,,,,,,,,
United States,att,ADSL,Elite, 6 000,608,  ,37.18,37.18,6.2,6.2,,,,,,,,,,,,,,,,,,,
United States,Verizon,ADSL,DSL power package, 3 000,,,40.36,40.36,13.45,13.45,,,,,,,,,,,,,,,,,,,
United States,Comcast,Cable,, 6 000,384,  ,61.57,61.57,10.26,10.26,,,,,,,,,,,,,,,,,,,
United States,Verizon,FTTx,FIOS, 5 000, 2 000,  ,37.13,37.13,7.43,7.43,,,,,,,,,,,,,,,,,,,
United States,Verizon,FTTx,FIOS, 15 000, 2 000,  ,47.76,47.76,3.18,3.18,,,,,,,,,,,,,,,,,,,
United States,Verizon,FTTx,FIOS, 30 000, 5 000,  ,191.2,191.2,6.37,6.37,,,,,,,,,,,,,,,,,,,
United States,,,, 7 808, 1 224,  ,53.21,53.21,10.07,10.07,,,,,,,,,,,,,,,,,,,
