Company,isp,Monthly charge (USD),Monthly charge (USD PPP),Mbytes included,Additional cost per mbyte (USD),Additional cost per mbyte (USD PPP),Speed of connection downstream (kbit/s),Speed of connection upstream (kbit/s)
Australia,Telstra - Big Pond,32.47,42.31,300,0.09,0.11,256,64
Australia,Telstra - Big Pond,41.67,54.3,1000,0.08,0.11,512,128
Australia,Telstra - Big Pond,,,,,,,
Australia,Telstra - Big Pond,,,,,,,
Australia,Telstra - Big Pond,,,,,,,
Austria,Telekom Austria,39.73,43.21,1000,0.07,0.08,512,64
Austria,Telekom Austria,,,,,,,
Austria,Telekom Austria,,,,,,,
Belgium,Belgacom ,38.67,41.79,10000,0.12,0.13,750,128
Belgium,Belgacom ,,,,,,,
Belgium,Belgacom ,,,,,,,
Canada,Bell Canada Sympatico,22.28,27.56,5000,0.005,0.01,960,120
Canada,Bell Canada Sympatico,,,,,,,
Czech Republic,Czech Telecom,0,0,0,0,0,0,0
Czech Republic,Czech Telecom,,,,,,,
Czech Republic,Czech Telecom,,,,,,,
Denmark,TDC,46.09,41.48,Unlimited,0,0,256,128
Denmark,TDC,57.28,51.55,Unlimited,0,0,512,128
Denmark,TDC,,,,,,,
Denmark,TDC,,,,,,,
Finland,Elisa,48.9,44.95,Unlimited,0,0,256,128
Finland,Elisa,60.64,55.73,Unlimited,0,0,512,256
Finland,Elisa,,,,,,,
France,France Telecom Wanadoo,44.42,47.28,Unlimited,0,0,512,128
France,France Telecom Wanadoo,,,,,,,
France,France Telecom Wanadoo,,,,,,,
Germany,Deutsche Telecom,44,47.07,Unlimited,0,0,768,128
Germany,Deutsche Telecom,,,,,,,
Germany,Deutsche Telecom,,,,,,,
Germany,Deutsche Telecom,,,,,,,
Greece,OTE,0,0,0,0,0,0,0
Greece,OTE,,,,,,,
Greece,OTE,,,,,,,
Hungary,Matav,59.39,117.76,Unlimited,0,0,384,64
Hungary,Matav,248.64,492.97,Unlimited,0,0,768,128
Iceland,Iceland Telecom,29.03,26.06,0,0.14,0.13,256,128
Iceland,Iceland Telecom,58.06,52.13,0,0.14,0.13,512,256
Ireland,Eircom,105.32,103.5,3000,0.04,0.03,512,128
Italy,Telecom Italia,48.85,61.66,Unlimited,0,0,640,128
Italy,Telecom Italia,36.14,45.61,Unlimited,0,0,256,128
Japan,NTT,40.76,28.81,Unlimited,0,0,1500,512
Japan,NTT,,,,,,,
Japan,NTT,,,,,,,
Korea,Korea Telecom,27.58,40.9,Unlimited,0,0,1500,640
Korea,Korea Telecom,36.78,54.53,Unlimited,0,0,8000,640
Korea,Korea Telecom,,,,,,,
Luxembourg,P&T,59.05,65.87,Unlimited,0,0,256,64
Luxembourg,P&T,84.35,94.09,Unlimited,0,0,512,64
Luxembourg,P&T,,,,,,,
Luxembourg,P&T,,,,,,,
Mexico,Telmex,58.32,81.46,Unlimited,0,0,256,128
Mexico,Telmex,92.72,129.51,Unlimited,0,0,512,256
Mexico,Telmex,,,,,,,
Netherlands,KPN,34.18,37.51,1000,0,0.01,256,64
Netherlands,KPN,51.1,56.07,Unlimited,0,0,512,128
Netherlands,KPN,,,,,,,
New Zealand,Telecom NZ,32,46.9,500,0.09,0.14,2000,250
New Zealand,Telecom NZ,41.27,60.5,1000,0.09,0.14,2000,250
New Zealand,Telecom NZ,,,,,,,
New Zealand,Telecom NZ,,,,,,,
New Zealand,Telecom NZ,,,,,,,
Norway,Telenor,59.22,46.03,Unlimited,0,0,384,128
Norway,Telenor,72.38,56.26,0,0,0,704,128
Norway,Telenor,,,,,,,
Poland,TPSA,71.58,138.89,Unlimited,0,0,512,128
Poland,TPSA,155.36,301.48,Unlimited,0,0,1020,256
Portugal,Portugal Telecom,37.16,53.92,4000,0.13,0.18,512,128
Portugal,Portugal Telecom,66.5,96.48,7000,0.13,0.18,768,128
Slovak Republic,Slovak Telecom,0,0,0,0,0,0,0
Slovak Republic,Slovak Telecom,0,0,0,0,0,0,0
Slovak Republic,Slovak Telecom,,,,,,,
Slovak Republic,Slovak Telecom,,,,,,,
Slovak Republic,Slovak Telecom,,,,,,,
Spain,Telefonica,47.68,61.61,Unlimited,0,0,256,128
Spain,Telefonica,95.22,123.04,Unlimited,0,0,512,128
Spain,Telefonica,,,,,,,
Spain,Telefonica,,,,,,,
Sweden,Telia,39.65,37.6,Unlimited,0,0,512,400
Sweden,Telia,,,,,,,
Sweden,Telia,,,,,,,
Sweden,Telia,,,,,,,
Sweden,Telia,,,,,,,
Switzerland,Swisscom,32.73,25.88,3000,0.03,0.03,256,64
Switzerland,Swisscom,52.78,41.72,6000,0.03,0.03,512,128
Switzerland,Swisscom,,,,,,,
Turkey,Turk Telekom,93.7,218.37,Unlimited,0,0,256,64
Turkey,Turk Telekom,285.98,666.46,Unlimited,0,0,512,128
Turkey,Turk Telekom,,,,,,,
Turkey,Turk Telekom,,,,,,,
Turkey,Turk Telekom,,,,,,,
Turkey,Turk Telekom,,,,,,,
United Kingdom,British Telecom,41.51,39.8,Unlimited,0,0,512,256
United Kingdom,British Telecom,,,,,,,
United Kingdom,British Telecom,,,,,,,
United States,Verizon,39.95,39.95,Unlimited,0,0,768,128
United States,SBC,,,,,,,
United States,SBC,,,,,,,
