Country,Company,Type,Plan,Down,Up,Bit cap,Price USD PPP
Australia,Bigpond,ADSL,,256,64,200,21.1
Australia,Bigpond,ADSL,,256,64, 10 000 ,42.24
Australia,Bigpond,ADSL,,512,128,400,35.19
Australia,Bigpond,ADSL,,512,128, 10 000 ,56.34
Australia,Bigpond,ADSL,, 1 500 ,256,500,56.2
Australia,Bigpond,ADSL,, 1 500 ,256, 10 000 ,77.48
Australia,Bigpond,ADSL,, 1 500 ,256, 20 000 ,98.62
Australia,Internode,ADSL,HOME-256-Starter,256,128,500,21.1
Australia,Internode,ADSL,HOME-512-Starter,512,128, 8 000 ,28.15
Australia,Internode,ADSL,HOME-512-Value,512,128, 20 000 ,35.2
Australia,Internode,ADSL,HOME-512-Pro,512,128, 40 000 ,49.29
Australia,Internode,ADSL,HOME-512-Elite,512,128, 80 000 ,77.48
Australia,Internode,ADSL,HOME-1500-Starter, 1 500 ,256, 10 000 ,42.24
Australia,Internode,ADSL,HOME-1500-Value, 1 500 ,256, 20 000 ,49.29
Australia,Internode,ADSL,HOME-1500-Pro, 1 500 ,256, 40 000 ,63.38
Australia,Internode,ADSL,HOME-1500-Elite, 1 500 ,256, 80 000 ,91.57
Australia,Internode,ADSL,HOME-Extreme-Value, 24 000 , 1 000 , 20 000 ,42.24
Australia,Internode,ADSL,HOME-Extreme-Pro, 24 000 , 1 000 , 40 000 ,56.34
Australia,Internode,ADSL,HOME-Extreme-Elite, 24 000 , 1 000 , 80 000 ,84.52
Australia,Optus,Cable,Easy Start, 9 900 ,128,100,21.1
Australia,Optus,Cable,Light, 9 900 ,128,300,28.15
Australia,Optus,Cable,Sprint, 9 900 ,128, 2 000 ,35.2
Australia,Optus,Cable,Advantage, 9 900 ,128, 7 000 ,42.24
Australia,Optus,Cable,Power, 9 900 ,128, 20 000 ,56.34
Australia,,,, 5 660 ,269, 21 625 ,50.46
Austria,AON,ADSL,aonSpeed Einsteiger,384,128,400,22.23
Austria,AON,ADSL,aonSpeed Allrounder, 1 024 ,256,800,33.4
Austria,AON,ADSL,aonSpeed Allrounder, 1 024 ,256, 2 000 ,44.57
Austria,AON,ADSL,aonSpeed Allrounder, 1 024 ,256, 5 000 ,50.15
Austria,AON,ADSL,aonSpeed Power User, 2 048 ,384, 15 000 ,61.32
Austria,AON,ADSL,aonPur, 1 280 ,256, 15 000 ,72.49
Austria,inode,ADSL,aDSL solo Privat 1280/256, 1 280 ,256, 20 000 ,66.91
Austria,inode,ADSL,aDSL Privat small 384/128,384,128,500,21.11
Austria,inode,ADSL,aDSL Privat medium 1024/256, 1 024 ,256, 1 000 ,30.05
Austria,inode,ADSL,aDSL Privat medium 2048/384, 2 048 ,384, 2 000 ,54.73
Austria,inode,ADSL,aDSL Privat large 3072/512, 3 072 ,512, 15 000 ,65.9
Austria,inode,ADSL,aDSL Privat large 4096/512, 4 096 ,512, 20 000 ,77.07
Austria,UPC,Cable,chello classic, 4 096 ,512,,54.73
Austria,UPC,Cable,chello plus, 8 192 ,768,,77.07
Austria,UPC,Cable,chello plus symmetric, 4 096 , 4 096 , 20 000 ,110.58
Austria,UPC,Cable,chello extreme, 16 384 , 1 024 ,,99.41
Austria,UPC,Cable,chello light,400,128, 1 000 ,22.32
Austria,,,, 3 050 ,595, 6 924 ,56.71
Belgium,Belgacom,ADSL,ADSL Light,512,128,400,33.75
Belgium,Belgacom,ADSL,ADSL Go, 4 096 ,256, 10 000 ,45.02
Belgium,Belgacom,ADSL,ADSL Plus, 4 096 ,256, 30 000 ,61.92
Belgium,Belgacom,ADSL,VDSL, 17 000 ,400, 30 000 ,67.56
Belgium,Tele2,ADSL,ADSL 4Mb, 4 000 ,256, 10 000 ,33.69
Belgium,Tele2,ADSL,ADSL Light,512,256,250,22.43
Belgium,Telenet,Cable ,ComfortNet, 1 024 ,192, 1 000 ,33.75
Belgium,Telenet,Cable ,ExpressNet, 10 000 ,256, 12 000 ,47.27
Belgium,Telenet,Cable ,ExpressNet Plus, 15 000 ,512, 18 000 ,58.54
Belgium,Telenet,Cable ,ExpressNet Turbo, 20 000 ,512, 35 000 ,67.56
Belgium,,,, 7 624 ,302, 14 665 ,47.15
Canada,Bell Canada,ADSL,High Speed Ultra, 5 000 ,,,46.41
Canada,Bell Canada,ADSL,High Speed, 5 000 ,,,43.58
Canada,Bell Canada,ADSL,Basic, 1 000 ,,,32.49
Canada,Bell Canada,ADSL,Sympatico Optimax 16, 16 000 , 1 000 ,,92.83
Canada,Bell Canada,ADSL,Sympatico Optimax 10, 10 000 , 1 000 ,,64.98
Canada,Shaw,Cable,High-Speed Xtreme-I, 10 000 , 1 000 , 100 000 ,45.44
Canada,Shaw,Cable,High-Speed Internet, 5 000 ,512, 60 000 ,36.16
Canada,Shaw,Cable,High-Speed Internet Lite,256,128, 10 000 ,23.16
Canada,Rogers,Cable,Extreme, 6 000 ,800,,48.22
Canada,Rogers,Cable,Express, 5 000 ,384,,40.8
Canada,Rogers,Cable,Lite, 1 000 ,128,,29.66
Canada,,,, 5 841 ,450, 15 455 ,45.79
Czech Republic,O2,ADSL,Internet Expres 2048, 2 048,256, 8 000,49.19
Czech Republic,O2,ADSL,Internet Expres 512,512,128, 1 000,32.76
Czech Republic,O2,ADSL,Internet Expres 3072, 3 072,256, 12 000,65.61
Czech Republic,O2,ADSL,Internet Expres 4096, 4 096,512, 20 000,98.46
Czech Republic,GTS Novera,ADSL,Fun 512/128 kbps,512,128, 2 000,32.44
Czech Republic,GTS Novera,ADSL,Fun 2048/256 kbps, 2 058,256, 10 000,48.86
Czech Republic,GTS Novera,ADSL,Fun 4096/512 kbps, 4 096,512, 20 000,98.13
Czech Republic,UPC,Cable,Starter,512,128, 5 000,39
Czech Republic,UPC,Cable,Easy, 1 024,128, 10 000,45.57
Czech Republic,UPC,Cable,Light, 2 560,256, 20 000,63.97
Czech Republic,UPC,Cable,Classic, 4 096,512, 50 000,100.51
Czech Republic,UPC,Cable,Plus , 6 144,768, 100 000,137.79
Czech Republic,UPC,Cable,Extreme, 10 240, 1 024, 100 000,164.15
Czech Republic,UPC,Cable,Professional, 12 288, 1 024, 100 000,372.23
Czech Republic,,,, 3 804,421, 32 714,96.33
Denmark,TDC,ADSL,,256,128,,13.91
Denmark,TDC,ADSL,,512,128,,27.94
Denmark,TDC,ADSL,,512,512,,36.71
Denmark,TDC,ADSL,, 1 024,128,,34.96
Denmark,TDC,ADSL,, 1 024,512,,43.72
Denmark,TDC,ADSL,, 2 048,128,,41.97
Denmark,TDC,ADSL,, 2 048,512,,50.74
Denmark,TDC,ADSL,, 4 096,256, 15 000,46.65
Denmark,TDC,ADSL,, 4 096,512, 15 000,55.41
Denmark,TDC,ADSL,, 8 064,512, 20 000,81.72
Denmark,TDC,ADSL,, 20 480, 1 024,  ,105.1
Denmark,Telia Stofa,Cable,Flatrate,256,64,  ,17.42
Denmark,Telia Stofa,Cable,Flatrate,512,128,  ,27.94
Denmark,Telia Stofa,Cable,Flatrate, 1 024,256,  ,33.79
Denmark,Telia Stofa,Cable,Flatrate, 4 096,512,  ,53.66
Denmark,Dansk Bredb├Ñnd,FTTx,, 25 000, 25 000,  ,69.56
Denmark,Dansk Bredb├Ñnd,FTTx,, 10 000, 10 000,  ,34.49
Denmark,Dansk Bredb├Ñnd,FTTx,, 2 000, 2 000,  ,22.8
Denmark,Dansk Bredb├Ñnd,FTTx,,512,512,  ,11.11
Denmark,,,, 4 608, 2 254, 2 632,42.61
Finland,Sonera,ADSL,,256,256,  ,20.08
Finland,Sonera,ADSL,,512,512,  ,22.43
Finland,Sonera,ADSL,, 1 000,512,  ,23.41
Finland,Sonera,ADSL,, 2 048,512,  ,33.21
Finland,Sonera,ADSL,, 8 000, 1 024,  ,43
Finland,Sonera,ADSL,, 12 000, 1 024,  ,50.94
Finland,Sonera,ADSL,, 24 000, 1 024,  ,57.79
Finland,Elisa,ADSL,256/256 kbit/s,256,256,  ,20.47
Finland,Elisa,ADSL,512/512 kbit/s,512,512,  ,22.43
Finland,Elisa,ADSL,1M /512 kbit/s, 1 000,512,  ,24.39
Finland,Elisa,ADSL,2M /512 kbit/s, 2 000,512,  ,34.19
Finland,Elisa,ADSL,8M/1M Full Rate, 8 000, 1 000,  ,43.98
Finland,Elisa,ADSL,24M/1M Full Rate, 24 000, 1 000,  ,48.88
Finland,Welho,Cable,Welho 10M, 10 000,500,  ,57.79
Finland,Welho,Cable,Welho 6M, 6 000,500,  ,44.08
Finland,Welho,Cable,Welho 2M, 2 000,300,  ,35.26
Finland,Welho,Cable,Welho 1M, 1 000,300,  ,24.49
Finland,Welho,Cable,Welho 525,525,200,  ,19.49
Finland,Sonera,FTTx,Huoneisto Plus, 100 000, 10 000,  ,58.67
Finland,Sonera,FTTx,Huoneisto Plus, 10 000, 10 000,  ,43
Finland,Sonera,FTTx,Huoneisto Plus, 1 000, 1 000,  ,24.39
Finland,,,, 10 196, 1 498,  ,35.83
France,France Telecom,ADSL,internet 1 m├®gamax, 1 024,256,  ,27.33
France,France Telecom,ADSL,internet 8 m├®gamax, 8 000,800,  ,32.82
France,France Telecom,ADSL,internet 18 m├®gamax, 18 000,800,  ,38.31
France,Neuf Telecom,ADSL,, 20 000, 1 000,  ,16.36
France,Noos,Cable,NET 1 M├®ga, 1 000,,  ,27.33
France,Noos,Cable,NET 4 M├®ga, 4 000,,  ,32.82
France,Noos,Cable,NET 20 M├®ga, 20 000,,  ,38.31
France,,,, 10 289,408,  ,30.47
Germany,Arcor,ADSL,Paket 2000, 2 000,384,  ,49.23
Germany,Arcor,ADSL,Paket 6000, 6 000,,  ,54.72
Germany,Arcor,ADSL,Paket 16000, 16 000,,  ,58.02
Germany,Deutsche Telekom,ASDL,T-DSL 1000 , 1 024,128,  ,29.62
Germany,Deutsche Telekom,ASDL,T-DSL 2000, 2 048,192,  ,32.91
Germany,Deutsche Telekom,ASDL,T-DSL 6000 , 6 016,576,  ,38.4
Germany,Deutsche Telekom,ASDL,T-DSL 16000 , 16 000, 1 024,  ,43.89
Germany,Kabel Deutschland,Cable,Classic,512,512,  ,21.85
Germany,Kabel Deutschland,Cable,Comfort, 2 200,220,  ,32.82
Germany,Kabel Deutschland,Cable,Professional, 10 200,420,  ,54.78
Germany,,,, 6 200,346,  ,41.62
Greece,OTE,ADSL,Conn-x 768/ 192,768,192,  ,36.35
Greece,OTE,ADSL,Conn-x 1024/ 256, 1 024,256,  ,46.05
Greece,OTE,ADSL,Conn-x 2048, 2 048,256,  ,76.75
Greece,Vivodi,ADSL,256/128,256,128,  ,41.91
Greece,Vivodi,ADSL,384/128,384,128,  ,48.08
Greece,Vivodi,ADSL,512/128,512,128,  ,51.52
Greece,Vivodi,ADSL,1024/256, 1 024,256,  ,59.22
Greece,Vivodi,ADSL,2048/640, 2 048,640,  ,109.21
Greece,Vivodi,ADSL,4096/640, 4 096,640,  ,334.36
Greece,,,, 1 351,292,  ,89.27
Hungary,T-Com,ADSL,T-DSL Favorit,512,96,  ,68.35
Hungary,T-Com,ADSL,T-DSL Favorit Plusz 1M, 1 024,128,  ,103.4
Hungary,T-Com,ADSL,T-DSL Favorit Plusz 2M, 2 048,192,  ,118.6
Hungary,GTS-Datanet,ADSL,1024/128, 1 024,128,  ,64.37
Hungary,GTS-Datanet,ADSL,easy_C,512,96,  ,36.45
Hungary,GTS-Datanet,ADSL,fair_C, 1 024,128,  ,52.91
Hungary,GTS-Datanet,ADSL,beginner,512,96,  ,49.58
Hungary,GTS-Datanet,ADSL,basic, 1 024,128,  ,64.37
Hungary,GTS-Datanet,ADSL,advanced, 2 048,192,  ,76.78
Hungary,GTS-Datanet,ADSL,expert, 3 008,384,  ,95.39
Hungary,GTS-Datanet,ADSL,professional, 6 144,512,  ,193.88
Hungary,UPC,Cable,chello classic, 3 072,512,  ,87.51
Hungary,UPC,Cable,chello standard, 1 536,384,  ,72.23
Hungary,UPC,Cable,chello plus, 6 144, 1 024,  ,218.88
Hungary,,,, 2 117,286,  ,93.05
Iceland,Siminn,ADSL,G├│├░ur, 1 000,256, 4 000,37.18
Iceland,Siminn,ADSL,Betri, 2 000,512, 6 000,46.49
Iceland,Siminn,ADSL,Bestur, 8 000, 1 024,  ,55.81
Iceland,Siminn,ADSL,Langbestur, 12 000, 1 024,  ,60.47
Iceland,Vodafone,ADSL,, 1 000,, 2 000,37.18
Iceland,Vodafone,ADSL,, 2 000,, 2 000,46.49
Iceland,Vodafone,ADSL,, 4 000,, 4 000,55.81
Iceland,Vodafone,ADSL,, 6 000,, 4 000,63.26
Iceland,,,, 4 500,352, 2 750,50.34
Ireland,Eircom,ADSL,broadband home starter, 1 024,128, 10 000,22.73
Ireland,Eircom,ADSL,broadband home plus, 2 048,248, 20 000,27.28
Ireland,Eircom,ADSL,broadband home professional, 3 000,384, 30 000,44.02
Ireland,ntl,Cable,Broadband value, 1 000,, 2 000,18.18
Ireland,ntl,Cable,Broadband starter, 2 000,, 16 000,22.73
Ireland,ntl,Cable,Broadband, 3 000,, 30 000,27.28
Ireland,ntl,Cable,Broadband Max, 6 000,, 40 000,36.37
Ireland,Smart Telecom,FTTx,Smart broadband, 6 000,256,  ,31.83
Ireland,,,, 3 009,127, 18 500,28.8
Italy,Alice,ADSL,Flat a 2 Mega, 2 000,256,  ,23.52
Italy,Alice,ADSL,20Mega, 20 000,,  ,43.57
Italy,Tiscali,ADSL,4 mega flat, 4 000,,  ,23.52
Italy,Tiscali,ADSL,12 mega flat, 12 000,,  ,35.31
Italy,Tiscali,ADSL,24 mega flat, 24 000,,  ,47.1
Italy,Fastweb,ADSL,Giorno e Notte, 6 000, 1 000,  ,37.73
Italy,Fastweb,ADSL,Giorno e Notte, 20 000, 1 000,  ,37.73
Italy,Fastweb,FTTx,Giorno e Notte, 10 000, 10 000,  ,37.73
Italy,Alice,Sat,Sat,640,34,  ,17.63
Italy,,,, 10 960, 1 366,  ,33.76
Japan,NTT,ADSL,Residential ADSL, 47 000, 5 000,  ,28.69
Japan,Yahoo! BB,ADSL,50M Revo, 50 500, 12 500,  ,31.11
Japan,Yahoo! BB,ADSL,50M, 50 000, 3 000,  ,28.94
Japan,Yahoo! BB,ADSL,26M, 26 000, 1 000,  ,28.22
Japan,Yahoo! BB,ADSL,12M, 12 000, 1 000,  ,26.05
Japan,Yahoo! BB,ADSL,8M, 8 000,900,  ,23.16
Japan,Yahoo! BB,ADSL,Reach DSL,960,960,  ,23.16
Japan,J:COM,Cable,Premier, 30 000, 2 000,  ,39.74
Japan,J:COM,Cable,Standard, 8 000, 2 000,  ,35.99
Japan,J:COM,Cable,Light,256,128,  ,19.87
Japan,NTT,FTTx,Apartment VDSL/LAN, 100 000, 100 000,  ,24.86
Japan,NTT,FTTx,Residential fibre, 100 000, 100 000,  ,39.53
Japan,Yahoo! BB,FTTx,Fiber (Home), 100 000, 100 000,  ,49.78
Japan,Yahoo! BB,FTTx,Fibre (Apartment), 100 000, 100 000,  ,21.53
Japan,NTT,VDSL,Apartment VDSL/LAN, 100 000, 100 000,  ,28.47
Japan,,,, 48 848, 35 233,  ,29.94
Korea,KT,ADSL,Lite ADSL, 4 000,460,  ,38.05
Korea,KT,ADSL/VDSL,Premium, 13 000, 4 000,  ,50.73
Korea,Hanaro,ADSL/VDSL,Pro, 20 000, 6 000,  ,48.19
Korea,C&M,Cable,Speed, 4 000,,  ,39.32
Korea,C&M,Cable,Max, 10 000, 1 000,  ,43.81
Korea,Hanaro,Cable,Pro, 20 000,768,  ,43.12
Korea,Hanaro,Cable,Lite, 10 000, 10 000,  ,35.51
Korea,KT,FTTx,Megapass Ntopia, 100 000, 100 000,  ,45.66
Korea,Hanaro,FTTx,Lite, 10 000, 10 000,  ,35.51
Korea,Hanaro,FTTx,Û┤æÙ×£, 100 000, 100 000,  ,41.85
Korea,KT,VDSL,Lite VDSL, 4 000, 4 000,  ,38.05
Korea,KT,VDSL,Megapass VDSL - Special 1, 20 000, 4 000,  ,53.27
Korea,KT,VDSL,Megapass VDSL - Special II, 50 000, 4 000,  ,57.07
Korea,Hanaro,VDSL,Dream II, 50 000, 6 000,  ,54.54
Korea,Hanaro,VDSL,Dream I, 20 000, 6 000,  ,50.73
Korea,,,, 29 000, 17 082,  ,45.03
Luxembourg,EPT,ADSL,LuxDSL / SpeedSurf Junior, 1 000,128, 2 000,32.39
Luxembourg,EPT,ADSL,LuxDSL / SpeedSurf Run, 2 000,192, 15 000,52.5
Luxembourg,EPT,ADSL,LuxDSL / SpeedSurf Express, 3 000,192,  ,88.24
Luxembourg,Cegecom,ADSL,Basic, 1 000,128, 15 000,29.15
Luxembourg,Cegecom,ADSL,Standard, 2 000,192, 25 000,42.22
Luxembourg,Cegecom,ADSL,Advanced, 2 000,192,  ,47.25
Luxembourg,Cegecom,ADSL,Pro, 3 000,192,  ,79.42
Luxembourg,Coditel,Cable,Lightclick, 1 000,128, 1 000,19.99
Luxembourg,Coditel,Cable,Speedclick, 6 000,256, 25 000,38.98
Luxembourg,Coditel,Cable,Megaclick, 10 000,512, 35 000,82.66
Luxembourg,,,, 3 100,211, 11 800,51.28
Mexico,Telmex,ADSL,Hasta 1024 kbps, 1 024,,  ,60.91
Mexico,Telmex,ADSL,Hasta 2048, 2 048,,  ,104.54
Mexico,Telmex,ADSL,Hasta 4096, 4 096,,  ,802.65
Mexico,Megacable,Cable,1024Kbps, 1 024,,  ,52.36
Mexico,Megacable,Cable,1500Kbps, 1 500,,  ,60.55
Mexico,Megacable,Cable,2048Kbps, 2 048,,  ,69.66
Mexico,Cablevision,Cable,256 kbps,256,,  ,56.91
Mexico,Cablevision,Cable,512 kbps,512,,  ,87.26
Mexico,Cablevision,Cable,1024 kbps, 1 024,,  ,165.88
Mexico,,,, 1 504,  ,  ,162.3
Netherlands,KPN,ADSL,Direct ADSL Lite , 3 000,512,  ,33.75
Netherlands,KPN,ADSL,Direct ADSL Go, 1 500,256,  ,24.74
Netherlands,KPN,ADSL,Direct ADSL Basic, 6 000,768,  ,56.29
Netherlands,Het Net,ADSL,Instap Surfen, 1 500,256,  ,22.48
Netherlands,Het Net,ADSL,Snel Surfen, 4 000,256,  ,28.12
Netherlands,Planet Internet,ADSL,Easy, 1 000,128,  ,22.48
Netherlands,Planet Internet,ADSL,Standard, 3 000,512,  ,39.33
Netherlands,Planet Internet,ADSL,Comfort, 6 000,768,  ,61.92
Netherlands,Casema,Cable,Midi, 1 600,300,  ,22.48
Netherlands,Casema,Cable,Multi, 4 200,660,  ,37.13
Netherlands,Casema,Cable,Maxi, 6 400,880,  ,55.78
Netherlands,Casema,Cable,Mega, 12 500, 1 050,  ,78.83
Netherlands,UPC,Cable,chello starter,384,128,  ,16.85
Netherlands,UPC,Cable,chello easy, 1 536,256,  ,25.86
Netherlands,UPC,Cable,chello light, 3 072, 1 024,  ,37.13
Netherlands,UPC,Cable,chello classic, 8 192, 1 024,  ,56.29
Netherlands,UPC,Cable,chello extreme, 20 480, 2 048,  ,67.56
Netherlands,,,, 4 963,637,  ,40.41
New Zealand,Telecom,ADSL,Xtra Broadband BASIC,256,,200,20.21
New Zealand,Telecom,ADSL,Xtra Broadband GO, 2 000,128, 1 000,26.95
New Zealand,Telecom,ADSL,Xtra Broadband EXPLORER, 3 500,128, 5 000,33.7
New Zealand,Telecom,ADSL,Xtra Broadband ADVENTURE, 3 500,128, 10 000,40.45
New Zealand,Telecom,ADSL,Xtra Broadband PRO, 3 500,512, 10 000,53.94
New Zealand,Telecom,ADSL,Xtra Broadband PRO ADVANCED, 3 500,512, 20 000,67.43
New Zealand,Telecom,ADSL,Xtra Broadband PRO ULTRA, 3 500,512, 40 000,101.16
New Zealand,TelstraClear,Cable,HighSpeed 10G, 4 000, 2 000, 10 000,55.25
New Zealand,TelstraClear,Cable,HighSpeed 20G, 4 000, 2 000, 20 000,68.75
New Zealand,TelstraClear,Cable,LightSpeed 40G, 10 000, 2 000, 40 000,88.99
New Zealand,TelstraClear,Cable,LightSpeed 80G, 10 000, 2 000, 80 000,115.97
New Zealand,Woosh,Wireless,Entry, 1 600,120,200,16.86
New Zealand,Woosh,Wireless,Elevate, 1 600,120,500,20.23
New Zealand,Woosh,Wireless,Express 2, 1 600,120, 2 000,26.95
New Zealand,Woosh,Wireless,Express 5, 1 600,120, 5 000,33.7
New Zealand,Woosh,Wireless,Express 10, 1 600,120, 10 000,40.45
New Zealand,,,, 3 485,658, 15 869,50.69
Norway,Telenor,ADSL,ADSL Mini,700,160,  ,30.68
Norway,Telenor,ADSL,ADSL Basis, 1 500,300,  ,35.81
Norway,Telenor,ADSL,ADSL Pluss, 3 000,350,  ,42.99
Norway,Telenor,ADSL,ADSL Ekstra, 6 000,500,  ,51.2
Norway,Telenor,ADSL,ADSL Max, 16 000,700,  ,56.33
Norway,Get,Cable,Easy,512,128,  ,20.01
Norway,Get,Cable,Easy,512,256,  ,27.09
Norway,Get,Cable,Light, 1 500,300,  ,28.63
Norway,Get ,Cable,Light, 1 500,600,  ,35.71
Norway,Get,Cable,Classic, 3 000,512,  ,38.89
Norway,Get,Cable,Classic, 3 000, 1 000,  ,45.97
Norway,Get,Cable,Plus, 6 000,768,  ,49.15
Norway,Get,Cable,Plus, 6 000, 1 500,  ,59.31
Norway,Get,Cable,Ultra, 10 000, 1 024,  ,59.41
Norway,Get,Cable,Ultra, 10 000, 2 000,  ,69.57
Norway,Get,Cable,Extreme, 26 000, 1 500,  ,92.15
Norway,Get,Cable,Extreme, 26 000, 3 000,  ,102.3
Norway,Lyse,FTTx,Internett Familie, 6 000, 6 000,  ,46.07
Norway,Lyse,FTTx,Internett Ekspress, 20 000, 10 000,  ,71.73
Norway,Lyse,FTTx,Internett 50/25, 50 000, 25 000,  ,148.79
Norway,,,, 9 861, 2 780,  ,55.59
Poland,TP,ADSL,1 MB, 1 024,,  ,38.09
Poland,TP,ADSL,2 MB, 2 048,,  ,68.16
Poland,TP,ADSL,6 MB, 6 144,,  ,78.18
Poland,TP,ADSL,512 KB,512,,  ,33.08
Poland,Dialog,ADSL,TelePakiet DSL 256 / 180,256,180,  ,60.53
Poland,Dialog,ADSL,TelePakiet DSL 256 / 60,256,60,  ,49.61
Poland,UPC,Cable,chello ultra, 12 000, 1 024,  ,149.84
Poland,UPC,Cable,chello plus, 6 000, 1 024,  ,124.78
Poland,UPC,Cable,chello easy,512,64,  ,44.6
Poland,UPC,Cable,chello light, 1 500,256,  ,57.13
Poland,UPC,Cable,chello classic, 3 000,384,  ,84.69
Poland,,,, 3 023,272,  ,71.7
Portugal,Portugal Telecom,ADSL,512kb,512,128, 1 000,37.44
Portugal,Portugal Telecom,ADSL,4Mb, 4 096,256, 10 000,53.3
Portugal,Portugal Telecom,ADSL,8Mb, 8 128,384, 30 000,74.16
Portugal,TV Cabo,Cable,256,256,128, 1 000,37.44
Portugal,TV Cabo,Cable,MEGA 4, 4 096,256, 10 000,53.32
Portugal,TV Cabo,Cable,MEGA 8, 8 000,384, 30 000,74.16
Portugal,Cabovisao,Cable,Internet at├® 2M, 2 000,, 10 000,47.94
Portugal,Cabovisao,Cable,Internet at├® 4M, 4 000,, 15 000,59.1
Portugal,Cabovisao,Cable,Internet at├® 8M, 8 000,, 30 000,59.92
Portugal,,,, 5 735,140, 15 636,53.99
Slovak Republic,Slovak Telecom,ADSL,Pohoda 600, 1 024,256,600,31.5
Slovak Republic,Slovak Telecom,ADSL,Pohoda 1000, 1 024,256, 1 000,37.81
Slovak Republic,Slovak Telecom,ADSL,Pohoda 2000, 1 024,256, 2 000,44.12
Slovak Republic,Slovak Telecom,ADSL,Pohoda 5000, 1 024,256, 5 000,63.06
Slovak Republic,Slovak Telecom,ADSL,Maxi Klasik, 1 024,256,  ,50.43
,,,,,,,
Slovak Republic,Dial Telecom,ADSL,Dial mini flat, 1 024,256,  ,31.5
Slovak Republic,UPC,Cable,chello easy, 1 024,128,,42.35
Slovak Republic,UPC,Cable,chello light, 2 048,256,,58.32
Slovak Republic,UPC,Cable,chello classic, 4 096,384,,90.13
Slovak Republic,UPC,Cable,chello extreme, 10 240, 1 024,,143.15
Slovak Republic,UPC,Cable,chello professional, 8 092,512,,265.16
Slovak Republic,,,, 2 877,349,782,77.96
Spain,Telefonica,ADSL,Linea ADSL 24 h, 1 000,320,  ,58.89
Spain,Telefonica,ADSL,Linea ADSL 24 h, 2 000,320,  ,113.02
Spain,Telefonica,ADSL,Linea ADSL 24 h, 4 000,512,  ,180.87
Spain,Telefonica,ADSL,Linea ADSL 24 h, 8 000,640,  ,226.95
Spain,Jazztel,ADSL,ADSL 1024 M├│dem, 1 024,300,  ,57.2
Spain,Jazztel,ADSL,ADSL hasta 6 Megas, 6 144,512,  ,49.67
Spain,Jazztel,ADSL,ADSL hasta 20 Megas, 20 480, 1 024,  ,45.14
Spain,Auna,Cable,Banda Ancha ONO 24h (4 Megas), 4 000,300,  ,52.76
Spain,,,, 5 831,491,  ,98.06
Sweden,TeliaSonera,ADSL,24 Mbit/s, 24 000, 1 000,  ,43.47
Sweden,TeliaSonera,ADSL,8 Mbit/s, 8 000,800,  ,40.21
Sweden,TeliaSonera,ADSL,2 Mbit/s, 2 000,400,  ,35.85
Sweden,TeliaSonera,ADSL,"0,25 Mbit/s",256,128,31.44
Sweden,Glocalnet,ADSL,Bredband 2, 2 000,,,27.13
Sweden,Glocalnet,ADSL,Bredband 8, 8 000,,,30.4
Sweden,Glocalnet,ADSL,Bredband 24, 24 000,,,32.58
Sweden,Bredbandsbolaget,ADSL,Bredband 24, 24 000, 1 000,,38.03
Sweden,Bredbandsbolaget,ADSL,Bredband 8, 8 000, 1 000,,34.76
Sweden,Bredbandsbolaget,ADSL,Bredband 2, 2 000, 1 000,,30.4
Sweden,Com Hem,Cable,Small,256,128,  ,10.79
Sweden,Com Hem,Cable,Medium, 8 192, 1 024,  ,32.58
Sweden,Com Hem,Cable,Large, 24 576, 1 024,  ,40.21
Sweden,Com Hem,Cable,Large, 24 576, 8 000,  ,46.74
Sweden,Bredbandsbolaget,FTTx,Bredband 100, 100 000, 10 000,,34.87
Sweden,Bredbandsbolaget,FTTx,Bredband 100, 2 000, 1 000,,24.95
Sweden,,,, 16 366, 1 657,  ,32.99
Switzerland,Bluewin,ADSL,ADSL 2000, 2 000,100,  ,27.54
Switzerland,Bluewin,ADSL,ADSL 3500, 3 500,300,  ,38.78
Switzerland,Bluewin,ADSL,ADSL 5000, 5 000,300,  ,55.65
Switzerland,Tele2,ADSL,ADSL 2000/100, 2 000,100,  ,24.73
Switzerland,Tele2,ADSL,ADSL 3500/300, 3 500,300,  ,35.97
Switzerland,Tele2,ADSL,ADSL 5000/300, 5 000,300,  ,52.84
Switzerland,Cablecom,Cable,hispeed 3000, 3 000,300,  ,12.53
Switzerland,Cablecom,Cable,hispeed 4000, 4 000,400,  ,16.86
Switzerland,Cablecom,Cable,hispeed 6000, 6 000,600,  ,26.7
Switzerland,,,, 3 778,300,  ,32.4
Turkey,T├╝rk Telekom,ADSL,Toptan,256,64,  ,35.56
Turkey,T├╝rk Telekom,ADSL,Toptan,512,128,  ,64.58
Turkey,T├╝rk Telekom,ADSL,Toptan, 1 024,256,  ,100.86
Turkey,T├╝rk Telekom,ADSL,Toptan, 2 048,512,  ,166.16
Turkey,Topaz,Cable,,256,64,  ,48.87
Turkey,Topaz,Cable,,512,128,  ,98.74
Turkey,Topaz,Cable,, 1 024,256,  ,188.5
Turkey,Topaz,Cable,, 2 048,512,  ,288.23
Turkey,,,,960,240,  ,123.94
United Kingdom,BT,ADSL,Option 3, 8 000,, 2 000,29
United Kingdom,BT,ADSL,Option 2, 8 000,, 6 000,37.05
United Kingdom,BT,ADSL,Option 1, 8 000,, 40 000,43.5
United Kingdom,Homechoice,ADSL,Base pack, 2 000,288,  ,29
United Kingdom,Homechoice,ADSL,Base pack, 4 000,416,  ,37.05
United Kingdom,Homechoice,ADSL,Base pack, 8 000,512,  ,45.11
United Kingdom,Telewest,Cable,Broadband, 2 000,256,  ,29
United Kingdom,Telewest,Cable,Broadband complete, 4 000,384,  ,40.29
United Kingdom,Telewest,Cable,Broadband elite, 10 000,384,  ,56.41
United Kingdom,,,, 6 000,249, 5 333,38.49
United States,att,ADSL,Basic,768,128,  ,15.93
United States,att,ADSL,Express, 1 500,384,  ,21.24
United States,att,ADSL,Pro, 3 000,512,  ,26.55
United States,att,ADSL,Elite, 6 000,608,  ,37.18
United States,Verizon,ADSL,DSL power package, 3 000,,,40.36
United States,Comcast,Cable,, 6 000,384,  ,61.57
United States,Verizon,FTTx,FIOS, 5 000, 2 000,  ,37.13
United States,Verizon,FTTx,FIOS, 15 000, 2 000,  ,47.76
United States,Verizon,FTTx,FIOS, 30 000, 5 000,  ,191.2
United States,,,, 7 808, 1 224,  ,53.21
